term.id,beeswax,eggsHenInShell,eggsHenInShellNumber,eggsHenYolk,eggsHenWhite,eggsDomesticGooseInShell,eggsDomesticGooseInShellNumber,eggsDomesticGooseYolk,eggsDomesticGooseWhite,eggsDomesticDuckInShell,eggsDomesticDuckInShellNumber,eggsDomesticDuckYolk,eggsDomesticDuckWhite,eggsOtherBirdInShell,eggsOtherBirdInShellNumber,eggsOtherBirdYolk,eggsOtherBirdWhite,honeyNatural,milkBuffaloRaw,milkBuffaloRawFpcm,milkCamelRaw,milkCowRaw,milkCowRawFpcm,milkGoatRaw,milkSheepRaw,milkSheepRawFpcm,silkWormCocoonsReelable,silkRawNotThrown,woolSheepGreasy,woolGoatGreasy,meatNesLiveweight,meatAssLiveweight,meatBirdNesLiveweight,meatBuffaloLiveweight,meatCamelLiveweight,meatBeefCattleLiveweight,meatDairyCattleLiveweight,meatChickenLiveweight,meatDuckLiveweight,meatGameLiveweight,meatGoatLiveweight,meatGooseLiveweight,meatGuineaPigLiveweight,meatHorseLiveweight,meatMuleLiveweight,meatOtherCamelidsLiveweight,meatOtherRodentsLiveweight,meatPigLiveweight,meatPigeonLiveweight,meatQuailLiveweight,meatRabbitLiveweight,meatSheepLiveweight,meatSeaSnailsWithShell,meatFreshwaterSnailsWithShell,meatLandSnailsWithShell,meatTurkeyLiveweight,meatNesColdCarcassWeight,meatAssColdCarcassWeight,meatBirdNesColdCarcassWeight,meatBuffaloColdCarcassWeight,meatCamelColdCarcassWeight,meatBeefCattleColdCarcassWeight,meatDairyCattleColdCarcassWeight,meatChickenColdCarcassWeight,meatDuckColdCarcassWeight,meatGameColdCarcassWeight,meatGoatColdCarcassWeight,meatGooseColdCarcassWeight,meatGuineaPigColdCarcassWeight,meatHorseColdCarcassWeight,meatMuleColdCarcassWeight,meatOtherCamelidsColdCarcassWeight,meatOtherRodentsColdCarcassWeight,meatPigColdCarcassWeight,meatPigeonColdCarcassWeight,meatQuailColdCarcassWeight,meatRabbitColdCarcassWeight,meatSheepColdCarcassWeight,meatSeaSnailsWithoutShell,meatFreshwaterSnailsWithoutShell,meatLandSnailsWithoutShell,meatTurkeyColdCarcassWeight,meatNesColdDressedCarcassWeight,meatAssColdDressedCarcassWeight,meatBirdNesReadyToCookWeight,meatBuffaloColdDressedCarcassWeight,meatCamelColdDressedCarcassWeight,meatBeefCattleColdDressedCarcassWeight,meatDairyCattleColdDressedCarcassWeight,meatChickenReadyToCookWeight,meatDuckReadyToCookWeight,meatGameColdDressedCarcassWeight,meatGoatColdDressedCarcassWeight,meatGooseReadyToCookWeight,meatGuineaPigColdDressedCarcassWeight,meatHorseColdDressedCarcassWeight,meatMuleColdDressedCarcassWeight,meatOtherCamelidsColdDressedCarcassWeight,meatOtherRodentsColdDressedCarcassWeight,meatPigColdDressedCarcassWeight,meatPigeonReadyToCookWeight,meatQuailReadyToCookWeight,meatRabbitColdDressedCarcassWeight,meatSheepColdDressedCarcassWeight,meatTurkeyReadyToCookWeight,offalBuffaloes,offalCamels,offalBeefCattle,offalDairyCattle,offalGoats,offalHorses,offalPigs,offalSheep,offalBuffaloesInedible,offalCamelsInedible,offalBeefCattleInedible,offalDairyCattleInedible,offalGoatsInedible,offalHorsesInedible,offalPigsInedible,offalSheepInedible,offalBuffaloesEdible,offalCamelsEdible,offalBeefCattleEdible,offalDairyCattleEdible,offalGoatsEdible,offalHorsesEdible,offalPigsEdible,offalSheepEdible,fatBuffaloes,fatCamels,fatDairyCattle,fatBeefCattle,fatGoats,fatPigs,fatSheep,hidesBuffaloFresh,hidesBeefCattleFresh,hidesDairyCattleFresh,skinsGoatFresh,skinsPigFresh,skinsSheepFresh,tallow
pastureRangePaddockExcretaManagement,-,0,0,0,0,0,0,0,0,0,0,0,0,0,0,0,0,-,0.13,0.13,-,0.1,0.1,0.09,0.09,0.09,-,-,0.09,0.09,-,0.35,0,0.13,-,0.06,0.1,0,0,0,0.09,0,-,0.35,0.35,-,-,0,0,0,-,0.09,-,-,-,0,-,0.35,0,0.13,-,0.06,0.1,0,0,0,0.09,0,-,0.35,0.35,-,-,0,0,0,-,0.09,-,-,-,0,-,0.35,0,0.13,-,0.06,0.1,0,0,0,0.09,0,-,0.35,0.35,-,-,0,0,0,-,0.09,0,0.13,-,0.06,0.1,0.09,0.35,0,0.09,0.13,-,0.06,0.1,0.09,0.35,0,0.09,0.13,-,0.06,0.1,0.09,0.35,0,0.09,0.13,-,0.1,0.06,0.09,0,0.09,0.13,0.06,0.1,0.09,0,0.09,-
dailySpread,-,-,-,-,-,-,-,-,-,-,-,-,-,-,-,-,-,-,-,-,-,-,-,-,-,-,-,-,-,-,-,-,-,-,-,-,-,-,-,-,-,-,-,-,-,-,-,-,-,-,-,-,-,-,-,-,-,-,-,-,-,-,-,-,-,-,-,-,-,-,-,-,-,-,-,-,-,-,-,-,-,-,-,-,-,-,-,-,-,-,-,-,-,-,-,-,-,-,-,-,-,-,-,-,-,-,-,-,-,-,-,-,-,-,-,-,-,-,-,-,-,-,-,-,-,-,-,-,-,-,-,-,-,-,-,-,-,-,-,-,-,-,-
solidStorage,-,0.14,0.14,0.14,0.14,0.14,0.14,0.14,0.14,0.14,0.14,0.14,0.14,0.14,0.14,0.14,0.14,-,0.17,0.17,-,0.27,0.27,0.28,0.28,0.28,-,-,0.28,0.28,-,0.35,0.17,0.17,-,0.27,0.27,0.17,0.17,0.17,0.28,0.16,-,0.35,0.35,-,-,0.45,0.17,0.17,-,0.28,-,-,-,0.24,-,0.35,0.17,0.17,-,0.27,0.27,0.17,0.17,0.17,0.28,0.16,-,0.35,0.35,-,-,0.45,0.17,0.17,-,0.28,-,-,-,0.24,-,0.35,0.17,0.17,-,0.27,0.27,0.17,0.17,0.17,0.28,0.16,-,0.35,0.35,-,-,0.45,0.17,0.17,-,0.28,0.24,0.17,-,0.27,0.27,0.28,0.35,0.45,0.28,0.17,-,0.27,0.27,0.28,0.35,0.45,0.28,0.17,-,0.27,0.27,0.28,0.35,0.45,0.28,0.17,-,0.27,0.27,0.28,0.45,0.28,0.17,0.27,0.27,0.28,0.45,0.28,-
solidStorageCoveredCompacted,-,0.14,0.14,0.14,0.14,0.14,0.14,0.14,0.14,0.14,0.14,0.14,0.14,0.14,0.14,0.14,0.14,-,0.17,0.17,-,0.27,0.27,0.28,0.28,0.28,-,-,0.28,0.28,-,0.35,0.17,0.17,-,0.27,0.27,0.17,0.17,0.17,0.28,0.16,-,0.35,0.35,-,-,0.45,0.17,0.17,-,0.28,-,-,-,0.24,-,0.35,0.17,0.17,-,0.27,0.27,0.17,0.17,0.17,0.28,0.16,-,0.35,0.35,-,-,0.45,0.17,0.17,-,0.28,-,-,-,0.24,-,0.35,0.17,0.17,-,0.27,0.27,0.17,0.17,0.17,0.28,0.16,-,0.35,0.35,-,-,0.45,0.17,0.17,-,0.28,0.24,0.17,-,0.27,0.27,0.28,0.35,0.45,0.28,0.17,-,0.27,0.27,0.28,0.35,0.45,0.28,0.17,-,0.27,0.27,0.28,0.35,0.45,0.28,0.17,-,0.27,0.27,0.28,0.45,0.28,0.17,0.27,0.27,0.28,0.45,0.28,-
solidStorageWithBulkingAgentAddition,-,0.14,0.14,0.14,0.14,0.14,0.14,0.14,0.14,0.14,0.14,0.14,0.14,0.14,0.14,0.14,0.14,-,0.17,0.17,-,0.27,0.27,0.28,0.28,0.28,-,-,0.28,0.28,-,0.35,0.17,0.17,-,0.27,0.27,0.17,0.17,0.17,0.28,0.16,-,0.35,0.35,-,-,0.45,0.17,0.17,-,0.28,-,-,-,0.24,-,0.35,0.17,0.17,-,0.27,0.27,0.17,0.17,0.17,0.28,0.16,-,0.35,0.35,-,-,0.45,0.17,0.17,-,0.28,-,-,-,0.24,-,0.35,0.17,0.17,-,0.27,0.27,0.17,0.17,0.17,0.28,0.16,-,0.35,0.35,-,-,0.45,0.17,0.17,-,0.28,0.24,0.17,-,0.27,0.27,0.28,0.35,0.45,0.28,0.17,-,0.27,0.27,0.28,0.35,0.45,0.28,0.17,-,0.27,0.27,0.28,0.35,0.45,0.28,0.17,-,0.27,0.27,0.28,0.45,0.28,0.17,0.27,0.27,0.28,0.45,0.28,-
solidStorageWithAdditives,-,0.14,0.14,0.14,0.14,0.14,0.14,0.14,0.14,0.14,0.14,0.14,0.14,0.14,0.14,0.14,0.14,-,0.17,0.17,-,0.27,0.27,0.28,0.28,0.28,-,-,0.28,0.28,-,0.35,0.17,0.17,-,0.27,0.27,0.17,0.17,0.17,0.28,0.16,-,0.35,0.35,-,-,0.45,0.17,0.17,-,0.28,-,-,-,0.24,-,0.35,0.17,0.17,-,0.27,0.27,0.17,0.17,0.17,0.28,0.16,-,0.35,0.35,-,-,0.45,0.17,0.17,-,0.28,-,-,-,0.24,-,0.35,0.17,0.17,-,0.27,0.27,0.17,0.17,0.17,0.28,0.16,-,0.35,0.35,-,-,0.45,0.17,0.17,-,0.28,0.24,0.17,-,0.27,0.27,0.28,0.35,0.45,0.28,0.17,-,0.27,0.27,0.28,0.35,0.45,0.28,0.17,-,0.27,0.27,0.28,0.35,0.45,0.28,0.17,-,0.27,0.27,0.28,0.45,0.28,0.17,0.27,0.27,0.28,0.45,0.28,-
dryLot,-,-,-,-,-,-,-,-,-,-,-,-,-,-,-,-,-,-,-,-,-,0.3,0.3,0.75,0.75,0.75,-,-,0.75,0.75,-,-,-,-,-,0.53,0.3,-,-,-,0.75,-,-,-,-,-,-,0.53,-,-,-,0.75,-,-,-,-,-,-,-,-,-,0.53,0.3,-,-,-,0.75,-,-,-,-,-,-,0.53,-,-,-,0.75,-,-,-,-,-,-,-,-,-,0.53,0.3,-,-,-,0.75,-,-,-,-,-,-,0.53,-,-,-,0.75,-,-,-,0.53,0.3,0.75,-,0.53,0.75,-,-,0.53,0.3,0.75,-,0.53,0.75,-,-,0.53,0.3,0.75,-,0.53,0.75,-,-,0.3,0.53,0.75,0.53,0.75,-,0.53,0.3,0.75,0.53,0.75,-
liquidSlurry,-,0.14,0.14,0.14,0.14,0.14,0.14,0.14,0.14,0.14,0.14,0.14,0.14,0.14,0.14,0.14,0.14,-,-,-,-,0.2,0.2,-,-,-,-,-,-,-,-,-,-,-,-,0.2,0.2,-,-,-,-,-,-,-,-,-,-,0.14,-,-,-,-,-,-,-,-,-,-,-,-,-,0.2,0.2,-,-,-,-,-,-,-,-,-,-,0.14,-,-,-,-,-,-,-,-,-,-,-,-,-,0.2,0.2,-,-,-,-,-,-,-,-,-,-,0.14,-,-,-,-,-,-,-,0.2,0.2,-,-,0.14,-,-,-,0.2,0.2,-,-,0.14,-,-,-,0.2,0.2,-,-,0.14,-,-,-,0.2,0.2,-,0.14,-,-,0.2,0.2,-,0.14,-,-
liquidSlurryWithNaturalCrustCover,-,0.14,0.14,0.14,0.14,0.14,0.14,0.14,0.14,0.14,0.14,0.14,0.14,0.14,0.14,0.14,0.14,-,-,-,-,0.2,0.2,-,-,-,-,-,-,-,-,-,-,-,-,0.2,0.2,-,-,-,-,-,-,-,-,-,-,0.14,-,-,-,-,-,-,-,-,-,-,-,-,-,0.2,0.2,-,-,-,-,-,-,-,-,-,-,0.14,-,-,-,-,-,-,-,-,-,-,-,-,-,0.2,0.2,-,-,-,-,-,-,-,-,-,-,0.14,-,-,-,-,-,-,-,0.2,0.2,-,-,0.14,-,-,-,0.2,0.2,-,-,0.14,-,-,-,0.2,0.2,-,-,0.14,-,-,-,0.2,0.2,-,0.14,-,-,0.2,0.2,-,0.14,-,-
liquidSlurryCover,-,0.14,0.14,0.14,0.14,0.14,0.14,0.14,0.14,0.14,0.14,0.14,0.14,0.14,0.14,0.14,0.14,-,-,-,-,0.2,0.2,-,-,-,-,-,-,-,-,-,-,-,-,0.2,0.2,-,-,-,-,-,-,-,-,-,-,0.14,-,-,-,-,-,-,-,-,-,-,-,-,-,0.2,0.2,-,-,-,-,-,-,-,-,-,-,0.14,-,-,-,-,-,-,-,-,-,-,-,-,-,0.2,0.2,-,-,-,-,-,-,-,-,-,-,0.14,-,-,-,-,-,-,-,0.2,0.2,-,-,0.14,-,-,-,0.2,0.2,-,-,0.14,-,-,-,0.2,0.2,-,-,0.14,-,-,-,0.2,0.2,-,0.14,-,-,0.2,0.2,-,0.14,-,-
uncoveredAnaerobicLagoon,-,0.14,0.14,0.14,0.14,0.14,0.14,0.14,0.14,0.14,0.14,0.14,0.14,0.14,0.14,0.14,0.14,-,-,-,-,0.2,0.2,-,-,-,-,-,-,-,-,-,-,-,-,0.2,0.2,-,-,-,-,-,-,-,-,-,-,0.14,-,-,-,-,-,-,-,-,-,-,-,-,-,0.2,0.2,-,-,-,-,-,-,-,-,-,-,0.14,-,-,-,-,-,-,-,-,-,-,-,-,-,0.2,0.2,-,-,-,-,-,-,-,-,-,-,0.14,-,-,-,-,-,-,-,0.2,0.2,-,-,0.14,-,-,-,0.2,0.2,-,-,0.14,-,-,-,0.2,0.2,-,-,0.14,-,-,-,0.2,0.2,-,0.14,-,-,0.2,0.2,-,0.14,-,-
pitStorageBelowAnimalConfinements,-,0.41,0.41,0.41,0.41,0.41,0.41,0.41,0.41,0.41,0.41,0.41,0.41,0.41,0.41,0.41,0.41,-,0.2,0.2,-,0.195,0.195,0.22,0.22,0.22,-,-,0.22,0.22,-,0.22,0.28,0.2,-,0.195,0.195,0.28,0.28,0.28,0.22,0.57,-,0.22,0.22,-,-,0.275,0.28,0.28,-,0.22,-,-,-,0.35,-,0.22,0.28,0.2,-,0.195,0.195,0.28,0.28,0.28,0.22,0.57,-,0.22,0.22,-,-,0.275,0.28,0.28,-,0.22,-,-,-,0.35,-,0.22,0.28,0.2,-,0.195,0.195,0.28,0.28,0.28,0.22,0.57,-,0.22,0.22,-,-,0.275,0.28,0.28,-,0.22,0.35,0.2,-,0.195,0.195,0.22,0.22,0.275,0.22,0.2,-,0.195,0.195,0.22,0.22,0.275,0.22,0.2,-,0.195,0.195,0.22,0.22,0.275,0.22,0.2,-,0.195,0.195,0.22,0.275,0.22,0.2,0.195,0.195,0.22,0.275,0.22,-
anaerobicDigesterHighQualityAndLowLeakage,-,-,-,-,-,-,-,-,-,-,-,-,-,-,-,-,-,-,-,-,-,-,-,-,-,-,-,-,-,-,-,-,-,-,-,-,-,-,-,-,-,-,-,-,-,-,-,-,-,-,-,-,-,-,-,-,-,-,-,-,-,-,-,-,-,-,-,-,-,-,-,-,-,-,-,-,-,-,-,-,-,-,-,-,-,-,-,-,-,-,-,-,-,-,-,-,-,-,-,-,-,-,-,-,-,-,-,-,-,-,-,-,-,-,-,-,-,-,-,-,-,-,-,-,-,-,-,-,-,-,-,-,-,-,-,-,-,-,-,-,-,-,-
anaerobicDigesterDigestersWithHighLeakage,-,-,-,-,-,-,-,-,-,-,-,-,-,-,-,-,-,-,-,-,-,-,-,-,-,-,-,-,-,-,-,-,-,-,-,-,-,-,-,-,-,-,-,-,-,-,-,-,-,-,-,-,-,-,-,-,-,-,-,-,-,-,-,-,-,-,-,-,-,-,-,-,-,-,-,-,-,-,-,-,-,-,-,-,-,-,-,-,-,-,-,-,-,-,-,-,-,-,-,-,-,-,-,-,-,-,-,-,-,-,-,-,-,-,-,-,-,-,-,-,-,-,-,-,-,-,-,-,-,-,-,-,-,-,-,-,-,-,-,-,-,-,-
burnedForFuelExcretaManagement,-,-,-,-,-,-,-,-,-,-,-,-,-,-,-,-,-,-,-,-,-,-,-,-,-,-,-,-,-,-,-,-,-,-,-,-,-,-,-,-,-,-,-,-,-,-,-,-,-,-,-,-,-,-,-,-,-,-,-,-,-,-,-,-,-,-,-,-,-,-,-,-,-,-,-,-,-,-,-,-,-,-,-,-,-,-,-,-,-,-,-,-,-,-,-,-,-,-,-,-,-,-,-,-,-,-,-,-,-,-,-,-,-,-,-,-,-,-,-,-,-,-,-,-,-,-,-,-,-,-,-,-,-,-,-,-,-,-,-,-,-,-,-
deepBedding,-,0.41,0.41,0.41,0.41,0.41,0.41,0.41,0.41,0.41,0.41,0.41,0.41,0.41,0.41,0.41,0.41,-,0.2,0.2,-,0.19,0.19,0.22,0.22,0.22,-,-,0.22,0.22,-,0.22,0.28,0.2,-,0.19,0.19,0.28,0.28,0.28,0.22,0.57,-,0.22,0.22,-,-,0.27,0.28,0.28,-,0.22,-,-,-,0.35,-,0.22,0.28,0.2,-,0.19,0.19,0.28,0.28,0.28,0.22,0.57,-,0.22,0.22,-,-,0.27,0.28,0.28,-,0.22,-,-,-,0.35,-,0.22,0.28,0.2,-,0.19,0.19,0.28,0.28,0.28,0.22,0.57,-,0.22,0.22,-,-,0.27,0.28,0.28,-,0.22,0.35,0.2,-,0.19,0.19,0.22,0.22,0.27,0.22,0.2,-,0.19,0.19,0.22,0.22,0.27,0.22,0.2,-,0.19,0.19,0.22,0.22,0.27,0.22,0.2,-,0.19,0.19,0.22,0.27,0.22,0.2,0.19,0.19,0.22,0.27,0.22,-
compostingInVessel,-,0.14,0.14,0.14,0.14,0.14,0.14,0.14,0.14,0.14,0.14,0.14,0.14,0.14,0.14,0.14,0.14,-,0.17,0.17,-,0.27,0.27,0.28,0.28,0.28,-,-,0.28,0.28,-,0.35,0.17,0.17,-,0.27,0.27,0.17,0.17,0.17,0.28,0.16,-,0.35,0.35,-,-,0.45,0.17,0.17,-,0.28,-,-,-,0.24,-,0.35,0.17,0.17,-,0.27,0.27,0.17,0.17,0.17,0.28,0.16,-,0.35,0.35,-,-,0.45,0.17,0.17,-,0.28,-,-,-,0.24,-,0.35,0.17,0.17,-,0.27,0.27,0.17,0.17,0.17,0.28,0.16,-,0.35,0.35,-,-,0.45,0.17,0.17,-,0.28,0.24,0.17,-,0.27,0.27,0.28,0.35,0.45,0.28,0.17,-,0.27,0.27,0.28,0.35,0.45,0.28,0.17,-,0.27,0.27,0.28,0.35,0.45,0.28,0.17,-,0.27,0.27,0.28,0.45,0.28,0.17,0.27,0.27,0.28,0.45,0.28,-
compostingStaticPileWithRunoffLeachingContainment,-,0.14,0.14,0.14,0.14,0.14,0.14,0.14,0.14,0.14,0.14,0.14,0.14,0.14,0.14,0.14,0.14,-,0.17,0.17,-,0.27,0.27,0.28,0.28,0.28,-,-,0.28,0.28,-,0.35,0.17,0.17,-,0.27,0.27,0.17,0.17,0.17,0.28,0.16,-,0.35,0.35,-,-,0.45,0.17,0.17,-,0.28,-,-,-,0.24,-,0.35,0.17,0.17,-,0.27,0.27,0.17,0.17,0.17,0.28,0.16,-,0.35,0.35,-,-,0.45,0.17,0.17,-,0.28,-,-,-,0.24,-,0.35,0.17,0.17,-,0.27,0.27,0.17,0.17,0.17,0.28,0.16,-,0.35,0.35,-,-,0.45,0.17,0.17,-,0.28,0.24,0.17,-,0.27,0.27,0.28,0.35,0.45,0.28,0.17,-,0.27,0.27,0.28,0.35,0.45,0.28,0.17,-,0.27,0.27,0.28,0.35,0.45,0.28,0.17,-,0.27,0.27,0.28,0.45,0.28,0.17,0.27,0.27,0.28,0.45,0.28,-
compostingStaticPileWithoutRunoffLeachingContainment,-,0.14,0.14,0.14,0.14,0.14,0.14,0.14,0.14,0.14,0.14,0.14,0.14,0.14,0.14,0.14,0.14,-,0.17,0.17,-,0.27,0.27,0.28,0.28,0.28,-,-,0.28,0.28,-,0.35,0.17,0.17,-,0.27,0.27,0.17,0.17,0.17,0.28,0.16,-,0.35,0.35,-,-,0.45,0.17,0.17,-,0.28,-,-,-,0.24,-,0.35,0.17,0.17,-,0.27,0.27,0.17,0.17,0.17,0.28,0.16,-,0.35,0.35,-,-,0.45,0.17,0.17,-,0.28,-,-,-,0.24,-,0.35,0.17,0.17,-,0.27,0.27,0.17,0.17,0.17,0.28,0.16,-,0.35,0.35,-,-,0.45,0.17,0.17,-,0.28,0.24,0.17,-,0.27,0.27,0.28,0.35,0.45,0.28,0.17,-,0.27,0.27,0.28,0.35,0.45,0.28,0.17,-,0.27,0.27,0.28,0.35,0.45,0.28,0.17,-,0.27,0.27,0.28,0.45,0.28,0.17,0.27,0.27,0.28,0.45,0.28,-
compostingIntensiveWindrowWithRunoffLeachingContainment,-,0.14,0.14,0.14,0.14,0.14,0.14,0.14,0.14,0.14,0.14,0.14,0.14,0.14,0.14,0.14,0.14,-,0.17,0.17,-,0.27,0.27,0.28,0.28,0.28,-,-,0.28,0.28,-,0.35,0.17,0.17,-,0.27,0.27,0.17,0.17,0.17,0.28,0.16,-,0.35,0.35,-,-,0.45,0.17,0.17,-,0.28,-,-,-,0.24,-,0.35,0.17,0.17,-,0.27,0.27,0.17,0.17,0.17,0.28,0.16,-,0.35,0.35,-,-,0.45,0.17,0.17,-,0.28,-,-,-,0.24,-,0.35,0.17,0.17,-,0.27,0.27,0.17,0.17,0.17,0.28,0.16,-,0.35,0.35,-,-,0.45,0.17,0.17,-,0.28,0.24,0.17,-,0.27,0.27,0.28,0.35,0.45,0.28,0.17,-,0.27,0.27,0.28,0.35,0.45,0.28,0.17,-,0.27,0.27,0.28,0.35,0.45,0.28,0.17,-,0.27,0.27,0.28,0.45,0.28,0.17,0.27,0.27,0.28,0.45,0.28,-
compostingIntensiveWindrowWithoutRunoffLeachingContainment,-,0.14,0.14,0.14,0.14,0.14,0.14,0.14,0.14,0.14,0.14,0.14,0.14,0.14,0.14,0.14,0.14,-,0.17,0.17,-,0.27,0.27,0.28,0.28,0.28,-,-,0.28,0.28,-,0.35,0.17,0.17,-,0.27,0.27,0.17,0.17,0.17,0.28,0.16,-,0.35,0.35,-,-,0.45,0.17,0.17,-,0.28,-,-,-,0.24,-,0.35,0.17,0.17,-,0.27,0.27,0.17,0.17,0.17,0.28,0.16,-,0.35,0.35,-,-,0.45,0.17,0.17,-,0.28,-,-,-,0.24,-,0.35,0.17,0.17,-,0.27,0.27,0.17,0.17,0.17,0.28,0.16,-,0.35,0.35,-,-,0.45,0.17,0.17,-,0.28,0.24,0.17,-,0.27,0.27,0.28,0.35,0.45,0.28,0.17,-,0.27,0.27,0.28,0.35,0.45,0.28,0.17,-,0.27,0.27,0.28,0.35,0.45,0.28,0.17,-,0.27,0.27,0.28,0.45,0.28,0.17,0.27,0.27,0.28,0.45,0.28,-
compostingPassiveWindrowWithRunoffLeachingContainment,-,0.14,0.14,0.14,0.14,0.14,0.14,0.14,0.14,0.14,0.14,0.14,0.14,0.14,0.14,0.14,0.14,-,0.17,0.17,-,0.27,0.27,0.28,0.28,0.28,-,-,0.28,0.28,-,0.35,0.17,0.17,-,0.27,0.27,0.17,0.17,0.17,0.28,0.16,-,0.35,0.35,-,-,0.45,0.17,0.17,-,0.28,-,-,-,0.24,-,0.35,0.17,0.17,-,0.27,0.27,0.17,0.17,0.17,0.28,0.16,-,0.35,0.35,-,-,0.45,0.17,0.17,-,0.28,-,-,-,0.24,-,0.35,0.17,0.17,-,0.27,0.27,0.17,0.17,0.17,0.28,0.16,-,0.35,0.35,-,-,0.45,0.17,0.17,-,0.28,0.24,0.17,-,0.27,0.27,0.28,0.35,0.45,0.28,0.17,-,0.27,0.27,0.28,0.35,0.45,0.28,0.17,-,0.27,0.27,0.28,0.35,0.45,0.28,0.17,-,0.27,0.27,0.28,0.45,0.28,0.17,0.27,0.27,0.28,0.45,0.28,-
compostingPassiveWindrowWithoutRunoffLeachingContainment,-,0.14,0.14,0.14,0.14,0.14,0.14,0.14,0.14,0.14,0.14,0.14,0.14,0.14,0.14,0.14,0.14,-,0.17,0.17,-,0.27,0.27,0.28,0.28,0.28,-,-,0.28,0.28,-,0.35,0.17,0.17,-,0.27,0.27,0.17,0.17,0.17,0.28,0.16,-,0.35,0.35,-,-,0.45,0.17,0.17,-,0.28,-,-,-,0.24,-,0.35,0.17,0.17,-,0.27,0.27,0.17,0.17,0.17,0.28,0.16,-,0.35,0.35,-,-,0.45,0.17,0.17,-,0.28,-,-,-,0.24,-,0.35,0.17,0.17,-,0.27,0.27,0.17,0.17,0.17,0.28,0.16,-,0.35,0.35,-,-,0.45,0.17,0.17,-,0.28,0.24,0.17,-,0.27,0.27,0.28,0.35,0.45,0.28,0.17,-,0.27,0.27,0.28,0.35,0.45,0.28,0.17,-,0.27,0.27,0.28,0.35,0.45,0.28,0.17,-,0.27,0.27,0.28,0.45,0.28,0.17,0.27,0.27,0.28,0.45,0.28,-
poultryManureWithLitter,-,0.41,0.41,0.41,0.41,0.41,0.41,0.41,0.41,0.41,0.41,0.41,0.41,0.41,0.41,0.41,0.41,-,0.2,0.2,-,0.19,0.19,0.22,0.22,0.22,-,-,0.22,0.22,-,0.22,0.28,0.2,-,0.19,0.19,0.28,0.28,0.28,0.22,0.57,-,0.22,0.22,-,-,0.27,0.28,0.28,-,0.22,-,-,-,0.35,-,0.22,0.28,0.2,-,0.19,0.19,0.28,0.28,0.28,0.22,0.57,-,0.22,0.22,-,-,0.27,0.28,0.28,-,0.22,-,-,-,0.35,-,0.22,0.28,0.2,-,0.19,0.19,0.28,0.28,0.28,0.22,0.57,-,0.22,0.22,-,-,0.27,0.28,0.28,-,0.22,0.35,0.2,-,0.19,0.19,0.22,0.22,0.27,0.22,0.2,-,0.19,0.19,0.22,0.22,0.27,0.22,0.2,-,0.19,0.19,0.22,0.22,0.27,0.22,0.2,-,0.19,0.19,0.22,0.27,0.22,0.2,0.19,0.19,0.22,0.27,0.22,-
poultryManureWithoutLitter,-,0.41,0.41,0.41,0.41,0.41,0.41,0.41,0.41,0.41,0.41,0.41,0.41,0.41,0.41,0.41,0.41,-,0.2,0.2,-,0.19,0.19,0.22,0.22,0.22,-,-,0.22,0.22,-,0.22,0.28,0.2,-,0.19,0.19,0.28,0.28,0.28,0.22,0.57,-,0.22,0.22,-,-,0.27,0.28,0.28,-,0.22,-,-,-,0.35,-,0.22,0.28,0.2,-,0.19,0.19,0.28,0.28,0.28,0.22,0.57,-,0.22,0.22,-,-,0.27,0.28,0.28,-,0.22,-,-,-,0.35,-,0.22,0.28,0.2,-,0.19,0.19,0.28,0.28,0.28,0.22,0.57,-,0.22,0.22,-,-,0.27,0.28,0.28,-,0.22,0.35,0.2,-,0.19,0.19,0.22,0.22,0.27,0.22,0.2,-,0.19,0.19,0.22,0.22,0.27,0.22,0.2,-,0.19,0.19,0.22,0.22,0.27,0.22,0.2,-,0.19,0.19,0.22,0.27,0.22,0.2,0.19,0.19,0.22,0.27,0.22,-
aerobicTreatment,-,0.14,0.14,0.14,0.14,0.14,0.14,0.14,0.14,0.14,0.14,0.14,0.14,0.14,0.14,0.14,0.14,-,-,-,-,0.2,0.2,-,-,-,-,-,-,-,-,-,-,-,-,0.2,0.2,-,-,-,-,-,-,-,-,-,-,0.14,-,-,-,-,-,-,-,-,-,-,-,-,-,0.2,0.2,-,-,-,-,-,-,-,-,-,-,0.14,-,-,-,-,-,-,-,-,-,-,-,-,-,0.2,0.2,-,-,-,-,-,-,-,-,-,-,0.14,-,-,-,-,-,-,-,0.2,0.2,-,-,0.14,-,-,-,0.2,0.2,-,-,0.14,-,-,-,0.2,0.2,-,-,0.14,-,-,-,0.2,0.2,-,0.14,-,-,0.2,0.2,-,0.14,-,-
excretionIntoWaterBody,-,-,-,-,-,-,-,-,-,-,-,-,-,-,-,-,-,-,-,-,-,-,-,-,-,-,-,-,-,-,-,-,-,-,-,-,-,-,-,-,-,-,-,-,-,-,-,-,-,-,-,-,-,-,-,-,-,-,-,-,-,-,-,-,-,-,-,-,-,-,-,-,-,-,-,-,-,-,-,-,-,-,-,-,-,-,-,-,-,-,-,-,-,-,-,-,-,-,-,-,-,-,-,-,-,-,-,-,-,-,-,-,-,-,-,-,-,-,-,-,-,-,-,-,-,-,-,-,-,-,-,-,-,-,-,-,-,-,-,-,-,-,-
anaerobicDigesterUnspecified,-,-,-,-,-,-,-,-,-,-,-,-,-,-,-,-,-,-,-,-,-,-,-,-,-,-,-,-,-,-,-,-,-,-,-,-,-,-,-,-,-,-,-,-,-,-,-,-,-,-,-,-,-,-,-,-,-,-,-,-,-,-,-,-,-,-,-,-,-,-,-,-,-,-,-,-,-,-,-,-,-,-,-,-,-,-,-,-,-,-,-,-,-,-,-,-,-,-,-,-,-,-,-,-,-,-,-,-,-,-,-,-,-,-,-,-,-,-,-,-,-,-,-,-,-,-,-,-,-,-,-,-,-,-,-,-,-,-,-,-,-,-,-
anaerobicDigesterHighQualityGastightStorageLowLeakageAndBestCompleteIndustrialTechnology,-,-,-,-,-,-,-,-,-,-,-,-,-,-,-,-,-,-,-,-,-,-,-,-,-,-,-,-,-,-,-,-,-,-,-,-,-,-,-,-,-,-,-,-,-,-,-,-,-,-,-,-,-,-,-,-,-,-,-,-,-,-,-,-,-,-,-,-,-,-,-,-,-,-,-,-,-,-,-,-,-,-,-,-,-,-,-,-,-,-,-,-,-,-,-,-,-,-,-,-,-,-,-,-,-,-,-,-,-,-,-,-,-,-,-,-,-,-,-,-,-,-,-,-,-,-,-,-,-,-,-,-,-,-,-,-,-,-,-,-,-,-,-
anaerobicDigesterHighQualityIndustrialTechnologyLowLeakageAndLowQualityGastightStorageTechnology,-,-,-,-,-,-,-,-,-,-,-,-,-,-,-,-,-,-,-,-,-,-,-,-,-,-,-,-,-,-,-,-,-,-,-,-,-,-,-,-,-,-,-,-,-,-,-,-,-,-,-,-,-,-,-,-,-,-,-,-,-,-,-,-,-,-,-,-,-,-,-,-,-,-,-,-,-,-,-,-,-,-,-,-,-,-,-,-,-,-,-,-,-,-,-,-,-,-,-,-,-,-,-,-,-,-,-,-,-,-,-,-,-,-,-,-,-,-,-,-,-,-,-,-,-,-,-,-,-,-,-,-,-,-,-,-,-,-,-,-,-,-,-
anaerobicDigesterHighQualityIndustrialTechnologyLowLeakageAndOpenStorage,-,-,-,-,-,-,-,-,-,-,-,-,-,-,-,-,-,-,-,-,-,-,-,-,-,-,-,-,-,-,-,-,-,-,-,-,-,-,-,-,-,-,-,-,-,-,-,-,-,-,-,-,-,-,-,-,-,-,-,-,-,-,-,-,-,-,-,-,-,-,-,-,-,-,-,-,-,-,-,-,-,-,-,-,-,-,-,-,-,-,-,-,-,-,-,-,-,-,-,-,-,-,-,-,-,-,-,-,-,-,-,-,-,-,-,-,-,-,-,-,-,-,-,-,-,-,-,-,-,-,-,-,-,-,-,-,-,-,-,-,-,-,-
anaerobicDigesterDigestersWithHighLeakageLowQualityTechnologyHighQualityGastightStorageTechnology,-,-,-,-,-,-,-,-,-,-,-,-,-,-,-,-,-,-,-,-,-,-,-,-,-,-,-,-,-,-,-,-,-,-,-,-,-,-,-,-,-,-,-,-,-,-,-,-,-,-,-,-,-,-,-,-,-,-,-,-,-,-,-,-,-,-,-,-,-,-,-,-,-,-,-,-,-,-,-,-,-,-,-,-,-,-,-,-,-,-,-,-,-,-,-,-,-,-,-,-,-,-,-,-,-,-,-,-,-,-,-,-,-,-,-,-,-,-,-,-,-,-,-,-,-,-,-,-,-,-,-,-,-,-,-,-,-,-,-,-,-,-,-
anaerobicDigesterDigestersWithHighLeakageLowQualityTechnologyLowQualityGastightStorageTechnology,-,-,-,-,-,-,-,-,-,-,-,-,-,-,-,-,-,-,-,-,-,-,-,-,-,-,-,-,-,-,-,-,-,-,-,-,-,-,-,-,-,-,-,-,-,-,-,-,-,-,-,-,-,-,-,-,-,-,-,-,-,-,-,-,-,-,-,-,-,-,-,-,-,-,-,-,-,-,-,-,-,-,-,-,-,-,-,-,-,-,-,-,-,-,-,-,-,-,-,-,-,-,-,-,-,-,-,-,-,-,-,-,-,-,-,-,-,-,-,-,-,-,-,-,-,-,-,-,-,-,-,-,-,-,-,-,-,-,-,-,-,-,-
anaerobicDigesterDigestersWithHighLeakageLowQualityTechnologyOpenStorage,-,-,-,-,-,-,-,-,-,-,-,-,-,-,-,-,-,-,-,-,-,-,-,-,-,-,-,-,-,-,-,-,-,-,-,-,-,-,-,-,-,-,-,-,-,-,-,-,-,-,-,-,-,-,-,-,-,-,-,-,-,-,-,-,-,-,-,-,-,-,-,-,-,-,-,-,-,-,-,-,-,-,-,-,-,-,-,-,-,-,-,-,-,-,-,-,-,-,-,-,-,-,-,-,-,-,-,-,-,-,-,-,-,-,-,-,-,-,-,-,-,-,-,-,-,-,-,-,-,-,-,-,-,-,-,-,-,-,-,-,-,-,-
excretaManagementUnspecified,-,0.18,0.18,0.18,0.18,0.18,0.18,0.18,0.18,0.18,0.18,0.18,0.18,0.18,0.18,0.18,0.18,-,0.18,0.18,-,0.23,0.23,0.28,0.28,0.28,-,-,0.28,0.28,-,0.32,0.19,0.18,-,0.24,0.23,0.19,0.19,0.19,0.28,0.25,-,0.32,0.32,-,-,0.33,0.19,0.19,-,0.28,-,-,-,0.25,-,0.32,0.19,0.18,-,0.24,0.23,0.19,0.19,0.19,0.28,0.25,-,0.32,0.32,-,-,0.33,0.19,0.19,-,0.28,-,-,-,0.25,-,0.32,0.19,0.18,-,0.24,0.23,0.19,0.19,0.19,0.28,0.25,-,0.32,0.32,-,-,0.33,0.19,0.19,-,0.28,0.25,0.18,-,0.24,0.23,0.28,0.32,0.33,0.28,0.18,-,0.24,0.23,0.28,0.32,0.33,0.28,0.18,-,0.24,0.23,0.28,0.32,0.33,0.28,0.18,-,0.23,0.24,0.28,0.33,0.28,0.18,0.24,0.23,0.28,0.33,0.28,-
