{
  "url": "data/QCL",
  "default": {
    "area": "2,3,4,7,8,9,1,10,11,52,12,13,16,14,57,255,15,23,53,18,19,80,20,21,26,27,233,29,35,115,32,33,37,39,40,351,96,128,214,41,44,45,46,47,48,98,49,50,167,51,107,116,250,54,72,55,56,58,59,60,61,178,63,209,238,62,64,66,67,68,69,70,74,75,73,79,81,84,86,87,89,90,175,91,93,95,97,99,100,101,102,103,104,105,106,109,110,112,108,114,83,118,113,120,119,121,122,123,124,126,256,129,130,131,132,133,134,127,135,136,137,138,145,141,273,143,144,28,147,148,149,150,153,156,157,158,159,160,154,162,221,165,299,166,168,169,170,171,173,174,177,179,117,146,183,185,184,182,188,189,191,244,193,194,195,272,186,196,197,200,199,198,25,201,202,277,203,38,276,206,207,210,211,212,208,216,176,217,218,219,220,222,213,227,223,228,226,230,225,229,215,231,234,235,155,236,237,249,248,251,181",
    "area_cs": "M49",
    "element": "2413",
    "year": "2000,2001,2002,2003,2004,2005,2006,2007,2008,2009,2010,2011,2012,2013,2014,2015,2016,2017,2018,2019,2020,2021",
    "item_cs": "CPC"
  },
  "crop": {
    "grouping": "cropGroupingFaostatProduction",
    "item": "809,800,221,711,515,526,226,366,367,572,839,203,486,44,176,552,216,181,420,89,358,101,568,426,217,591,378,125,265,393,108,531,220,191,459,689,401,693,698,661,249,656,813,195,554,QC>,397,550,577,149,399,569,773,94,720,549,560,446,406,242,225,336,677,277,780,310,263,782,592,224,407,497,201,372,333,461,210,56,571,671,299,79,103,449,292,836,702,75,254,430,260,403,402,490,414,558,512,821,619,234,339,542,211,723,541,161,603,463,600,534,521,187,417,687,748,587,197,574,223,489,536,507,296,116,394,754,523,92,788,270,547,27,71,280,328,289,789,83,530,236,373,544,423,157,156,267,122,305,495,136,667,388,97,777,275,826,692,205,222,567,15,137,135"
  }
}
