GADM-AFG.10_1
GADM-AFG.11_1
GADM-AFG.12_1
GADM-AFG.13_1
GADM-AFG.14_1
GADM-AFG.15_1
GADM-AFG.16_1
GADM-AFG.17_1
GADM-AFG.18_1
GADM-AFG.19_1
GADM-AFG.1_1
GADM-AFG.20_1
GADM-AFG.21_1
GADM-AFG.22_1
GADM-AFG.23_1
GADM-AFG.24_1
GADM-AFG.25_1
GADM-AFG.26_1
GADM-AFG.27_1
GADM-AFG.28_1
GADM-AFG.29_1
GADM-AFG.2_1
GADM-AFG.30_1
GADM-AFG.31_1
GADM-AFG.32_1
GADM-AFG.33_1
GADM-AFG.34_1
GADM-AFG.3_1
GADM-AFG.4_1
GADM-AFG.5_1
GADM-AFG.6_1
GADM-AFG.7_1
GADM-AFG.8_1
GADM-AFG.9_1
GADM-AGO.10_1
GADM-AGO.11_1
GADM-AGO.12_1
GADM-AGO.13_1
GADM-AGO.14_1
GADM-AGO.15_1
GADM-AGO.16_1
GADM-AGO.17_1
GADM-AGO.18_1
GADM-AGO.1_1
GADM-AGO.2_1
GADM-AGO.3_1
GADM-AGO.4_1
GADM-AGO.5_1
GADM-AGO.6_1
GADM-AGO.7_1
GADM-AGO.8_1
GADM-AGO.9_1
GADM-ALA.10_1
GADM-ALA.11_1
GADM-ALA.12_1
GADM-ALA.13_1
GADM-ALA.14_1
GADM-ALA.15_1
GADM-ALA.16_1
GADM-ALA.1_1
GADM-ALA.2_1
GADM-ALA.3_1
GADM-ALA.4_1
GADM-ALA.5_1
GADM-ALA.6_1
GADM-ALA.7_1
GADM-ALA.8_1
GADM-ALA.9_1
GADM-ALB.10_1
GADM-ALB.11_1
GADM-ALB.12_1
GADM-ALB.1_1
GADM-ALB.2_1
GADM-ALB.3_1
GADM-ALB.4_1
GADM-ALB.5_1
GADM-ALB.6_1
GADM-ALB.7_1
GADM-ALB.8_1
GADM-ALB.9_1
GADM-AND.1_1
GADM-AND.2_1
GADM-AND.3_1
GADM-AND.4_1
GADM-AND.5_1
GADM-AND.6_1
GADM-AND.7_1
GADM-ARE.1_1
GADM-ARE.2_1
GADM-ARE.3_1
GADM-ARE.4_1
GADM-ARE.5_1
GADM-ARE.6_1
GADM-ARE.7_1
GADM-ARG.10_1
GADM-ARG.11_1
GADM-ARG.12_1
GADM-ARG.13_1
GADM-ARG.14_1
GADM-ARG.15_1
GADM-ARG.16_1
GADM-ARG.17_1
GADM-ARG.18_1
GADM-ARG.19_1
GADM-ARG.1_1
GADM-ARG.20_1
GADM-ARG.21_1
GADM-ARG.22_1
GADM-ARG.23_1
GADM-ARG.24_1
GADM-ARG.2_1
GADM-ARG.3_1
GADM-ARG.4_1
GADM-ARG.5_1
GADM-ARG.6_1
GADM-ARG.7_1
GADM-ARG.8_1
GADM-ARG.9_1
GADM-ARM.10_1
GADM-ARM.11_1
GADM-ARM.1_1
GADM-ARM.2_1
GADM-ARM.3_1
GADM-ARM.4_1
GADM-ARM.5_1
GADM-ARM.6_1
GADM-ARM.7_1
GADM-ARM.8_1
GADM-ARM.9_1
GADM-ASM.1_1
GADM-ASM.2_1
GADM-ASM.3_1
GADM-ASM.4_1
GADM-ATF.1_1
GADM-ATF.2_1
GADM-ATF.3_1
GADM-ATF.4_1
GADM-ATG.1_1
GADM-ATG.2_1
GADM-ATG.3_1
GADM-ATG.4_1
GADM-ATG.5_1
GADM-ATG.6_1
GADM-ATG.7_1
GADM-ATG.8_1
GADM-AUS.10_1
GADM-AUS.11_1
GADM-AUS.1_1
GADM-AUS.2_1
GADM-AUS.3_1
GADM-AUS.4_1
GADM-AUS.5_1
GADM-AUS.6_1
GADM-AUS.7_1
GADM-AUS.8_1
GADM-AUS.9_1
GADM-AUT.1_1
GADM-AUT.2_1
GADM-AUT.3_1
GADM-AUT.4_1
GADM-AUT.5_1
GADM-AUT.6_1
GADM-AUT.7_1
GADM-AUT.8_1
GADM-AUT.9_1
GADM-AZE.10_1
GADM-AZE.1_1
GADM-AZE.2_1
GADM-AZE.3_1
GADM-AZE.4_1
GADM-AZE.5_1
GADM-AZE.6_1
GADM-AZE.7_1
GADM-AZE.8_1
GADM-AZE.9_1
GADM-BDI.10_1
GADM-BDI.11_1
GADM-BDI.12_1
GADM-BDI.13_1
GADM-BDI.14_1
GADM-BDI.15_1
GADM-BDI.16_1
GADM-BDI.17_1
GADM-BDI.1_1
GADM-BDI.2_1
GADM-BDI.3_1
GADM-BDI.4_1
GADM-BDI.5_1
GADM-BDI.6_1
GADM-BDI.7_1
GADM-BDI.8_1
GADM-BDI.9_1
GADM-BEL.1_1
GADM-BEL.2_1
GADM-BEL.3_1
GADM-BEN.10_1
GADM-BEN.11_1
GADM-BEN.12_1
GADM-BEN.1_1
GADM-BEN.2_1
GADM-BEN.3_1
GADM-BEN.4_1
GADM-BEN.5_1
GADM-BEN.6_1
GADM-BEN.7_1
GADM-BEN.8_1
GADM-BEN.9_1
GADM-BES.1_1
GADM-BES.2_1
GADM-BES.3_1
GADM-BFA.10_1
GADM-BFA.11_1
GADM-BFA.12_1
GADM-BFA.13_1
GADM-BFA.1_1
GADM-BFA.2_1
GADM-BFA.3_1
GADM-BFA.4_1
GADM-BFA.5_1
GADM-BFA.6_1
GADM-BFA.7_1
GADM-BFA.8_1
GADM-BFA.9_1
GADM-BGD.1_1
GADM-BGD.2_1
GADM-BGD.3_1
GADM-BGD.4_1
GADM-BGD.5_1
GADM-BGD.6_1
GADM-BGD.7_1
GADM-BGR.10_1
GADM-BGR.11_1
GADM-BGR.12_1
GADM-BGR.13_1
GADM-BGR.14_1
GADM-BGR.15_1
GADM-BGR.16_1
GADM-BGR.17_1
GADM-BGR.18_1
GADM-BGR.19_1
GADM-BGR.1_1
GADM-BGR.20_1
GADM-BGR.21_1
GADM-BGR.22_1
GADM-BGR.23_1
GADM-BGR.24_1
GADM-BGR.25_1
GADM-BGR.26_1
GADM-BGR.27_1
GADM-BGR.28_1
GADM-BGR.2_1
GADM-BGR.3_1
GADM-BGR.4_1
GADM-BGR.5_1
GADM-BGR.6_1
GADM-BGR.7_1
GADM-BGR.8_1
GADM-BGR.9_1
GADM-BHR.1_1
GADM-BHR.2_1
GADM-BHR.3_1
GADM-BHR.4_1
GADM-BHR.5_1
GADM-BHS.10_1
GADM-BHS.11_1
GADM-BHS.12_1
GADM-BHS.13_1
GADM-BHS.14_1
GADM-BHS.15_1
GADM-BHS.16_1
GADM-BHS.17_1
GADM-BHS.18_1
GADM-BHS.19_1
GADM-BHS.1_1
GADM-BHS.20_1
GADM-BHS.21_1
GADM-BHS.22_1
GADM-BHS.23_1
GADM-BHS.24_1
GADM-BHS.25_1
GADM-BHS.26_1
GADM-BHS.27_1
GADM-BHS.28_1
GADM-BHS.29_1
GADM-BHS.2_1
GADM-BHS.30_1
GADM-BHS.31_1
GADM-BHS.32_1
GADM-BHS.3_1
GADM-BHS.4_1
GADM-BHS.5_1
GADM-BHS.6_1
GADM-BHS.7_1
GADM-BHS.8_1
GADM-BHS.9_1
GADM-BIH.1_1
GADM-BIH.2_1
GADM-BIH.3_1
GADM-BLR.1_1
GADM-BLR.2_1
GADM-BLR.3_1
GADM-BLR.4_1
GADM-BLR.5_1
GADM-BLR.6_1
GADM-BLZ.1_1
GADM-BLZ.2_1
GADM-BLZ.3_1
GADM-BLZ.4_1
GADM-BLZ.5_1
GADM-BLZ.6_1
GADM-BMU.10_1
GADM-BMU.11_1
GADM-BMU.1_1
GADM-BMU.2_1
GADM-BMU.3_1
GADM-BMU.4_1
GADM-BMU.5_1
GADM-BMU.6_1
GADM-BMU.7_1
GADM-BMU.8_1
GADM-BMU.9_1
GADM-BOL.1_1
GADM-BOL.2_1
GADM-BOL.3_1
GADM-BOL.4_1
GADM-BOL.5_1
GADM-BOL.6_1
GADM-BOL.7_1
GADM-BOL.8_1
GADM-BOL.9_1
GADM-BRA.10_1
GADM-BRA.11_1
GADM-BRA.12_1
GADM-BRA.13_1
GADM-BRA.14_1
GADM-BRA.15_1
GADM-BRA.16_1
GADM-BRA.17_1
GADM-BRA.18_1
GADM-BRA.19_1
GADM-BRA.1_1
GADM-BRA.20_1
GADM-BRA.21_1
GADM-BRA.22_1
GADM-BRA.23_1
GADM-BRA.24_1
GADM-BRA.25_1
GADM-BRA.26_1
GADM-BRA.27_1
GADM-BRA.2_1
GADM-BRA.3_1
GADM-BRA.4_1
GADM-BRA.5_1
GADM-BRA.6_1
GADM-BRA.7_1
GADM-BRA.8_1
GADM-BRA.9_1
GADM-BRB.10_1
GADM-BRB.11_1
GADM-BRB.1_1
GADM-BRB.2_1
GADM-BRB.3_1
GADM-BRB.4_1
GADM-BRB.5_1
GADM-BRB.6_1
GADM-BRB.7_1
GADM-BRB.8_1
GADM-BRB.9_1
GADM-BRN.1_1
GADM-BRN.2_1
GADM-BRN.3_1
GADM-BRN.4_1
GADM-BTN.10_1
GADM-BTN.11_1
GADM-BTN.12_1
GADM-BTN.13_1
GADM-BTN.14_1
GADM-BTN.15_1
GADM-BTN.16_1
GADM-BTN.17_1
GADM-BTN.18_1
GADM-BTN.19_1
GADM-BTN.1_1
GADM-BTN.20_1
GADM-BTN.2_1
GADM-BTN.3_1
GADM-BTN.4_1
GADM-BTN.5_1
GADM-BTN.6_1
GADM-BTN.7_1
GADM-BTN.8_1
GADM-BTN.9_1
GADM-BWA.10_1
GADM-BWA.11_1
GADM-BWA.12_1
GADM-BWA.13_1
GADM-BWA.14_1
GADM-BWA.15_1
GADM-BWA.16_1
GADM-BWA.1_1
GADM-BWA.2_1
GADM-BWA.3_1
GADM-BWA.4_1
GADM-BWA.5_1
GADM-BWA.6_1
GADM-BWA.7_1
GADM-BWA.8_1
GADM-BWA.9_1
GADM-CAF.10_1
GADM-CAF.11_1
GADM-CAF.12_1
GADM-CAF.13_1
GADM-CAF.14_1
GADM-CAF.15_1
GADM-CAF.16_1
GADM-CAF.17_1
GADM-CAF.1_1
GADM-CAF.2_1
GADM-CAF.3_1
GADM-CAF.4_1
GADM-CAF.5_1
GADM-CAF.6_1
GADM-CAF.7_1
GADM-CAF.8_1
GADM-CAF.9_1
GADM-CAN.10_1
GADM-CAN.11_1
GADM-CAN.12_1
GADM-CAN.13_1
GADM-CAN.1_1
GADM-CAN.2_1
GADM-CAN.3_1
GADM-CAN.4_1
GADM-CAN.5_1
GADM-CAN.6_1
GADM-CAN.7_1
GADM-CAN.8_1
GADM-CAN.9_1
GADM-CHE.10_1
GADM-CHE.11_1
GADM-CHE.12_1
GADM-CHE.13_1
GADM-CHE.14_1
GADM-CHE.15_1
GADM-CHE.16_1
GADM-CHE.17_1
GADM-CHE.18_1
GADM-CHE.19_1
GADM-CHE.1_1
GADM-CHE.20_1
GADM-CHE.21_1
GADM-CHE.22_1
GADM-CHE.23_1
GADM-CHE.24_1
GADM-CHE.25_1
GADM-CHE.26_1
GADM-CHE.2_1
GADM-CHE.3_1
GADM-CHE.4_1
GADM-CHE.5_1
GADM-CHE.6_1
GADM-CHE.7_1
GADM-CHE.8_1
GADM-CHE.9_1
GADM-CHL.10_1
GADM-CHL.11_1
GADM-CHL.12_1
GADM-CHL.13_1
GADM-CHL.14_1
GADM-CHL.15_1
GADM-CHL.16_1
GADM-CHL.1_1
GADM-CHL.2_1
GADM-CHL.3_1
GADM-CHL.4_1
GADM-CHL.5_1
GADM-CHL.6_1
GADM-CHL.7_1
GADM-CHL.8_1
GADM-CHL.9_1
GADM-CHN.10_1
GADM-CHN.11_1
GADM-CHN.12_1
GADM-CHN.13_1
GADM-CHN.14_1
GADM-CHN.15_1
GADM-CHN.16_1
GADM-CHN.17_1
GADM-CHN.18_1
GADM-CHN.19_1
GADM-CHN.1_1
GADM-CHN.20_1
GADM-CHN.21_1
GADM-CHN.22_1
GADM-CHN.23_1
GADM-CHN.24_1
GADM-CHN.25_1
GADM-CHN.26_1
GADM-CHN.27_1
GADM-CHN.28_1
GADM-CHN.29_1
GADM-CHN.2_1
GADM-CHN.30_1
GADM-CHN.31_1
GADM-CHN.3_1
GADM-CHN.4_1
GADM-CHN.5_1
GADM-CHN.6_1
GADM-CHN.7_1
GADM-CHN.8_1
GADM-CHN.9_1
GADM-CIV.10_1
GADM-CIV.11_1
GADM-CIV.12_1
GADM-CIV.13_1
GADM-CIV.14_1
GADM-CIV.1_1
GADM-CIV.2_1
GADM-CIV.3_1
GADM-CIV.4_1
GADM-CIV.5_1
GADM-CIV.6_1
GADM-CIV.7_1
GADM-CIV.8_1
GADM-CIV.9_1
GADM-CMR.10_1
GADM-CMR.1_1
GADM-CMR.2_1
GADM-CMR.3_1
GADM-CMR.4_1
GADM-CMR.5_1
GADM-CMR.6_1
GADM-CMR.7_1
GADM-CMR.8_1
GADM-CMR.9_1
GADM-COD.10_1
GADM-COD.11_1
GADM-COD.12_1
GADM-COD.13_1
GADM-COD.14_1
GADM-COD.15_1
GADM-COD.16_1
GADM-COD.17_1
GADM-COD.18_1
GADM-COD.19_1
GADM-COD.1_1
GADM-COD.20_1
GADM-COD.21_1
GADM-COD.22_1
GADM-COD.23_1
GADM-COD.24_1
GADM-COD.25_1
GADM-COD.26_1
GADM-COD.2_1
GADM-COD.3_1
GADM-COD.4_1
GADM-COD.5_1
GADM-COD.6_1
GADM-COD.7_1
GADM-COD.8_1
GADM-COD.9_1
GADM-COG.10_1
GADM-COG.11_1
GADM-COG.12_1
GADM-COG.1_1
GADM-COG.2_1
GADM-COG.3_1
GADM-COG.4_1
GADM-COG.5_1
GADM-COG.6_1
GADM-COG.7_1
GADM-COG.8_1
GADM-COG.9_1
GADM-COL.10_1
GADM-COL.11_1
GADM-COL.12_1
GADM-COL.13_1
GADM-COL.14_1
GADM-COL.15_1
GADM-COL.16_1
GADM-COL.17_1
GADM-COL.18_1
GADM-COL.19_1
GADM-COL.1_1
GADM-COL.20_1
GADM-COL.21_1
GADM-COL.22_1
GADM-COL.23_1
GADM-COL.24_1
GADM-COL.25_1
GADM-COL.26_1
GADM-COL.27_1
GADM-COL.28_1
GADM-COL.29_1
GADM-COL.2_1
GADM-COL.30_1
GADM-COL.31_1
GADM-COL.32_1
GADM-COL.3_1
GADM-COL.4_1
GADM-COL.5_1
GADM-COL.6_1
GADM-COL.7_1
GADM-COL.8_1
GADM-COL.9_1
GADM-COM.1_1
GADM-COM.2_1
GADM-COM.3_1
GADM-CPV.10_1
GADM-CPV.11_1
GADM-CPV.12_1
GADM-CPV.13_1
GADM-CPV.14_1
GADM-CPV.15_1
GADM-CPV.16_1
GADM-CPV.17_1
GADM-CPV.18_1
GADM-CPV.19_1
GADM-CPV.1_1
GADM-CPV.20_1
GADM-CPV.21_1
GADM-CPV.22_1
GADM-CPV.2_1
GADM-CPV.3_1
GADM-CPV.4_1
GADM-CPV.5_1
GADM-CPV.6_1
GADM-CPV.7_1
GADM-CPV.8_1
GADM-CPV.9_1
GADM-CRI.1_1
GADM-CRI.2_1
GADM-CRI.3_1
GADM-CRI.4_1
GADM-CRI.5_1
GADM-CRI.6_1
GADM-CRI.7_1
GADM-CUB.10_1
GADM-CUB.11_1
GADM-CUB.12_1
GADM-CUB.13_1
GADM-CUB.14_1
GADM-CUB.15_1
GADM-CUB.16_1
GADM-CUB.1_1
GADM-CUB.2_1
GADM-CUB.3_1
GADM-CUB.4_1
GADM-CUB.5_1
GADM-CUB.6_1
GADM-CUB.7_1
GADM-CUB.8_1
GADM-CUB.9_1
GADM-CYM.1_1
GADM-CYM.2_1
GADM-CYM.3_1
GADM-CYM.4_1
GADM-CYM.5_1
GADM-CYM.6_1
GADM-CYM.7_1
GADM-CYP.1_1
GADM-CYP.2_1
GADM-CYP.3_1
GADM-CYP.4_1
GADM-CYP.5_1
GADM-CZE.10_1
GADM-CZE.11_1
GADM-CZE.12_1
GADM-CZE.13_1
GADM-CZE.14_1
GADM-CZE.1_1
GADM-CZE.2_1
GADM-CZE.3_1
GADM-CZE.4_1
GADM-CZE.5_1
GADM-CZE.6_1
GADM-CZE.7_1
GADM-CZE.8_1
GADM-CZE.9_1
GADM-DEU.10_1
GADM-DEU.11_1
GADM-DEU.12_1
GADM-DEU.13_1
GADM-DEU.14_1
GADM-DEU.15_1
GADM-DEU.16_1
GADM-DEU.1_1
GADM-DEU.2_1
GADM-DEU.3_1
GADM-DEU.4_1
GADM-DEU.5_1
GADM-DEU.6_1
GADM-DEU.7_1
GADM-DEU.8_1
GADM-DEU.9_1
GADM-DJI.1_1
GADM-DJI.2_1
GADM-DJI.3_1
GADM-DJI.4_1
GADM-DJI.5_1
GADM-DMA.10_1
GADM-DMA.1_1
GADM-DMA.2_1
GADM-DMA.3_1
GADM-DMA.4_1
GADM-DMA.5_1
GADM-DMA.6_1
GADM-DMA.7_1
GADM-DMA.8_1
GADM-DMA.9_1
GADM-DNK.1_1
GADM-DNK.2_1
GADM-DNK.3_1
GADM-DNK.4_1
GADM-DNK.5_1
GADM-DOM.10_1
GADM-DOM.11_1
GADM-DOM.12_1
GADM-DOM.13_1
GADM-DOM.14_1
GADM-DOM.15_1
GADM-DOM.16_1
GADM-DOM.17_1
GADM-DOM.18_1
GADM-DOM.19_1
GADM-DOM.1_1
GADM-DOM.20_1
GADM-DOM.21_1
GADM-DOM.22_1
GADM-DOM.23_1
GADM-DOM.24_1
GADM-DOM.25_1
GADM-DOM.26_1
GADM-DOM.27_1
GADM-DOM.28_1
GADM-DOM.29_1
GADM-DOM.2_1
GADM-DOM.30_1
GADM-DOM.31_1
GADM-DOM.32_1
GADM-DOM.3_1
GADM-DOM.4_1
GADM-DOM.5_1
GADM-DOM.6_1
GADM-DOM.7_1
GADM-DOM.8_1
GADM-DOM.9_1
GADM-DZA.10_1
GADM-DZA.11_1
GADM-DZA.12_1
GADM-DZA.13_1
GADM-DZA.14_1
GADM-DZA.15_1
GADM-DZA.16_1
GADM-DZA.17_1
GADM-DZA.18_1
GADM-DZA.19_1
GADM-DZA.1_1
GADM-DZA.20_1
GADM-DZA.21_1
GADM-DZA.22_1
GADM-DZA.23_1
GADM-DZA.24_1
GADM-DZA.25_1
GADM-DZA.26_1
GADM-DZA.27_1
GADM-DZA.28_1
GADM-DZA.29_1
GADM-DZA.2_1
GADM-DZA.30_1
GADM-DZA.31_1
GADM-DZA.32_1
GADM-DZA.33_1
GADM-DZA.34_1
GADM-DZA.35_1
GADM-DZA.36_1
GADM-DZA.37_1
GADM-DZA.38_1
GADM-DZA.39_1
GADM-DZA.3_1
GADM-DZA.40_1
GADM-DZA.41_1
GADM-DZA.42_1
GADM-DZA.43_1
GADM-DZA.44_1
GADM-DZA.45_1
GADM-DZA.46_1
GADM-DZA.47_1
GADM-DZA.48_1
GADM-DZA.4_1
GADM-DZA.5_1
GADM-DZA.6_1
GADM-DZA.7_1
GADM-DZA.8_1
GADM-DZA.9_1
GADM-ECU.10_1
GADM-ECU.11_1
GADM-ECU.12_1
GADM-ECU.13_1
GADM-ECU.14_1
GADM-ECU.15_1
GADM-ECU.16_1
GADM-ECU.17_1
GADM-ECU.18_1
GADM-ECU.19_1
GADM-ECU.1_1
GADM-ECU.20_1
GADM-ECU.21_1
GADM-ECU.22_1
GADM-ECU.23_1
GADM-ECU.24_1
GADM-ECU.2_1
GADM-ECU.3_1
GADM-ECU.4_1
GADM-ECU.5_1
GADM-ECU.6_1
GADM-ECU.7_1
GADM-ECU.8_1
GADM-ECU.9_1
GADM-EGY.10_1
GADM-EGY.11_1
GADM-EGY.12_1
GADM-EGY.13_1
GADM-EGY.14_1
GADM-EGY.15_1
GADM-EGY.16_1
GADM-EGY.17_1
GADM-EGY.18_1
GADM-EGY.19_1
GADM-EGY.1_1
GADM-EGY.20_1
GADM-EGY.21_1
GADM-EGY.22_1
GADM-EGY.23_1
GADM-EGY.24_1
GADM-EGY.25_1
GADM-EGY.26_1
GADM-EGY.27_1
GADM-EGY.2_1
GADM-EGY.3_1
GADM-EGY.4_1
GADM-EGY.5_1
GADM-EGY.6_1
GADM-EGY.7_1
GADM-EGY.8_1
GADM-EGY.9_1
GADM-ERI.1_1
GADM-ERI.2_1
GADM-ERI.3_1
GADM-ERI.4_1
GADM-ERI.5_1
GADM-ERI.6_1
GADM-ESH.1_1
GADM-ESH.2_1
GADM-ESH.3_1
GADM-ESH.4_1
GADM-ESP.10_1
GADM-ESP.11_1
GADM-ESP.12_1
GADM-ESP.13_1
GADM-ESP.14_1
GADM-ESP.15_1
GADM-ESP.16_1
GADM-ESP.17_1
GADM-ESP.18_1
GADM-ESP.1_1
GADM-ESP.2_1
GADM-ESP.3_1
GADM-ESP.4_1
GADM-ESP.5_1
GADM-ESP.6_1
GADM-ESP.7_1
GADM-ESP.8_1
GADM-ESP.9_1
GADM-EST.10_1
GADM-EST.11_1
GADM-EST.12_1
GADM-EST.13_1
GADM-EST.14_1
GADM-EST.15_1
GADM-EST.16_1
GADM-EST.1_1
GADM-EST.2_1
GADM-EST.3_1
GADM-EST.4_1
GADM-EST.5_1
GADM-EST.6_1
GADM-EST.7_1
GADM-EST.8_1
GADM-EST.9_1
GADM-ETH.10_1
GADM-ETH.11_1
GADM-ETH.1_1
GADM-ETH.2_1
GADM-ETH.3_1
GADM-ETH.4_1
GADM-ETH.5_1
GADM-ETH.6_1
GADM-ETH.7_1
GADM-ETH.8_1
GADM-ETH.9_1
GADM-FIN.1_1
GADM-FIN.2_1
GADM-FIN.3_1
GADM-FIN.4_1
GADM-FIN.5_1
GADM-FJI.1_1
GADM-FJI.2_1
GADM-FJI.3_1
GADM-FJI.4_1
GADM-FJI.5_1
GADM-FRA.10_1
GADM-FRA.11_1
GADM-FRA.12_1
GADM-FRA.13_1
GADM-FRA.1_1
GADM-FRA.2_1
GADM-FRA.3_1
GADM-FRA.4_1
GADM-FRA.5_1
GADM-FRA.6_1
GADM-FRA.7_1
GADM-FRA.8_1
GADM-FRA.9_1
GADM-FRO.1_1
GADM-FRO.2_1
GADM-FRO.3_1
GADM-FRO.4_1
GADM-FRO.5_1
GADM-FRO.6_1
GADM-FSM.1_1
GADM-FSM.2_1
GADM-FSM.3_1
GADM-FSM.4_1
GADM-GAB.1_1
GADM-GAB.2_1
GADM-GAB.3_1
GADM-GAB.4_1
GADM-GAB.5_1
GADM-GAB.6_1
GADM-GAB.7_1
GADM-GAB.8_1
GADM-GAB.9_1
GADM-GBR.1_1
GADM-GBR.2_1
GADM-GBR.3_1
GADM-GBR.4_1
GADM-GEO.10_1
GADM-GEO.11_1
GADM-GEO.12_1
GADM-GEO.1_1
GADM-GEO.2_1
GADM-GEO.3_1
GADM-GEO.4_1
GADM-GEO.5_1
GADM-GEO.6_1
GADM-GEO.7_1
GADM-GEO.8_1
GADM-GEO.9_1
GADM-GGY.10_1
GADM-GGY.11_1
GADM-GGY.12_1
GADM-GGY.13_1
GADM-GGY.14_1
GADM-GGY.15_1
GADM-GGY.1_1
GADM-GGY.2_1
GADM-GGY.3_1
GADM-GGY.4_1
GADM-GGY.5_1
GADM-GGY.6_1
GADM-GGY.7_1
GADM-GGY.8_1
GADM-GGY.9_1
GADM-GHA.10_1
GADM-GHA.1_1
GADM-GHA.2_1
GADM-GHA.3_1
GADM-GHA.4_1
GADM-GHA.5_1
GADM-GHA.6_1
GADM-GHA.7_1
GADM-GHA.8_1
GADM-GHA.9_1
GADM-GIN.1_1
GADM-GIN.2_1
GADM-GIN.3_1
GADM-GIN.4_1
GADM-GIN.5_1
GADM-GIN.6_1
GADM-GIN.7_1
GADM-GIN.8_1
GADM-GLP.1_1
GADM-GLP.2_1
GADM-GMB.1_1
GADM-GMB.2_1
GADM-GMB.3_1
GADM-GMB.4_1
GADM-GMB.5_1
GADM-GMB.6_1
GADM-GNB.1_1
GADM-GNB.2_1
GADM-GNB.3_1
GADM-GNB.4_1
GADM-GNB.5_1
GADM-GNB.6_1
GADM-GNB.7_1
GADM-GNB.8_1
GADM-GNB.9_1
GADM-GNQ.1_1
GADM-GNQ.2_1
GADM-GNQ.3_1
GADM-GNQ.4_1
GADM-GNQ.5_1
GADM-GNQ.6_1
GADM-GNQ.7_1
GADM-GRC.1_1
GADM-GRC.2_1
GADM-GRC.3_1
GADM-GRC.4_1
GADM-GRC.5_1
GADM-GRC.6_1
GADM-GRC.7_1
GADM-GRC.8_1
GADM-GRD.1_1
GADM-GRD.2_1
GADM-GRD.3_1
GADM-GRD.4_1
GADM-GRD.5_1
GADM-GRD.6_1
GADM-GRD.7_1
GADM-GRL.1_1
GADM-GRL.2_1
GADM-GRL.3_1
GADM-GRL.4_1
GADM-GRL.5_1
GADM-GTM.10_1
GADM-GTM.11_1
GADM-GTM.12_1
GADM-GTM.13_1
GADM-GTM.14_1
GADM-GTM.15_1
GADM-GTM.16_1
GADM-GTM.17_1
GADM-GTM.18_1
GADM-GTM.19_1
GADM-GTM.1_1
GADM-GTM.20_1
GADM-GTM.21_1
GADM-GTM.22_1
GADM-GTM.2_1
GADM-GTM.3_1
GADM-GTM.4_1
GADM-GTM.5_1
GADM-GTM.6_1
GADM-GTM.7_1
GADM-GTM.8_1
GADM-GTM.9_1
GADM-GUF.1_1
GADM-GUF.2_1
GADM-GUM.10_1
GADM-GUM.11_1
GADM-GUM.12_1
GADM-GUM.13_1
GADM-GUM.14_1
GADM-GUM.15_1
GADM-GUM.16_1
GADM-GUM.17_1
GADM-GUM.18_1
GADM-GUM.19_1
GADM-GUM.1_1
GADM-GUM.2_1
GADM-GUM.3_1
GADM-GUM.4_1
GADM-GUM.5_1
GADM-GUM.6_1
GADM-GUM.7_1
GADM-GUM.8_1
GADM-GUM.9_1
GADM-GUY.10_1
GADM-GUY.1_1
GADM-GUY.2_1
GADM-GUY.3_1
GADM-GUY.4_1
GADM-GUY.5_1
GADM-GUY.6_1
GADM-GUY.7_1
GADM-GUY.8_1
GADM-GUY.9_1
GADM-HKG.10_1
GADM-HKG.11_1
GADM-HKG.12_1
GADM-HKG.13_1
GADM-HKG.14_1
GADM-HKG.15_1
GADM-HKG.16_1
GADM-HKG.17_1
GADM-HKG.18_1
GADM-HKG.1_1
GADM-HKG.2_1
GADM-HKG.3_1
GADM-HKG.4_1
GADM-HKG.5_1
GADM-HKG.6_1
GADM-HKG.7_1
GADM-HKG.8_1
GADM-HKG.9_1
GADM-HND.10_1
GADM-HND.11_1
GADM-HND.12_1
GADM-HND.13_1
GADM-HND.14_1
GADM-HND.15_1
GADM-HND.16_1
GADM-HND.17_1
GADM-HND.18_1
GADM-HND.1_1
GADM-HND.2_1
GADM-HND.3_1
GADM-HND.4_1
GADM-HND.5_1
GADM-HND.6_1
GADM-HND.7_1
GADM-HND.8_1
GADM-HND.9_1
GADM-HRV.10_1
GADM-HRV.11_1
GADM-HRV.12_1
GADM-HRV.13_1
GADM-HRV.14_1
GADM-HRV.15_1
GADM-HRV.16_1
GADM-HRV.17_1
GADM-HRV.18_1
GADM-HRV.19_1
GADM-HRV.1_1
GADM-HRV.20_1
GADM-HRV.21_1
GADM-HRV.2_1
GADM-HRV.3_1
GADM-HRV.4_1
GADM-HRV.5_1
GADM-HRV.6_1
GADM-HRV.7_1
GADM-HRV.8_1
GADM-HRV.9_1
GADM-HTI.10_1
GADM-HTI.1_1
GADM-HTI.2_1
GADM-HTI.3_1
GADM-HTI.4_1
GADM-HTI.5_1
GADM-HTI.6_1
GADM-HTI.7_1
GADM-HTI.8_1
GADM-HTI.9_1
GADM-HUN.10_1
GADM-HUN.11_1
GADM-HUN.12_1
GADM-HUN.13_1
GADM-HUN.14_1
GADM-HUN.15_1
GADM-HUN.16_1
GADM-HUN.17_1
GADM-HUN.18_1
GADM-HUN.19_1
GADM-HUN.1_1
GADM-HUN.20_1
GADM-HUN.2_1
GADM-HUN.3_1
GADM-HUN.4_1
GADM-HUN.5_1
GADM-HUN.6_1
GADM-HUN.7_1
GADM-HUN.8_1
GADM-HUN.9_1
GADM-IDN.10_1
GADM-IDN.11_1
GADM-IDN.12_1
GADM-IDN.13_1
GADM-IDN.14_1
GADM-IDN.15_1
GADM-IDN.16_1
GADM-IDN.17_1
GADM-IDN.18_1
GADM-IDN.19_1
GADM-IDN.1_1
GADM-IDN.20_1
GADM-IDN.21_1
GADM-IDN.22_1
GADM-IDN.23_1
GADM-IDN.24_1
GADM-IDN.25_1
GADM-IDN.26_1
GADM-IDN.27_1
GADM-IDN.28_1
GADM-IDN.29_1
GADM-IDN.2_1
GADM-IDN.30_1
GADM-IDN.31_1
GADM-IDN.32_1
GADM-IDN.33_1
GADM-IDN.3_1
GADM-IDN.4_1
GADM-IDN.5_1
GADM-IDN.6_1
GADM-IDN.7_1
GADM-IDN.8_1
GADM-IDN.9_1
GADM-IMN.1_1
GADM-IMN.2_1
GADM-IMN.3_1
GADM-IMN.4_1
GADM-IMN.5_1
GADM-IMN.6_1
GADM-IND.10_1
GADM-IND.11_1
GADM-IND.12_1
GADM-IND.13_1
GADM-IND.14_1
GADM-IND.15_1
GADM-IND.16_1
GADM-IND.17_1
GADM-IND.18_1
GADM-IND.19_1
GADM-IND.1_1
GADM-IND.20_1
GADM-IND.21_1
GADM-IND.22_1
GADM-IND.23_1
GADM-IND.24_1
GADM-IND.25_1
GADM-IND.26_1
GADM-IND.27_1
GADM-IND.28_1
GADM-IND.29_1
GADM-IND.2_1
GADM-IND.30_1
GADM-IND.31_1
GADM-IND.32_1
GADM-IND.33_1
GADM-IND.34_1
GADM-IND.35_1
GADM-IND.36_1
GADM-IND.3_1
GADM-IND.4_1
GADM-IND.5_1
GADM-IND.6_1
GADM-IND.7_1
GADM-IND.8_1
GADM-IND.9_1
GADM-IRL.10_1
GADM-IRL.11_1
GADM-IRL.12_1
GADM-IRL.13_1
GADM-IRL.14_1
GADM-IRL.15_1
GADM-IRL.16_1
GADM-IRL.17_1
GADM-IRL.18_1
GADM-IRL.19_1
GADM-IRL.1_1
GADM-IRL.20_1
GADM-IRL.21_1
GADM-IRL.22_1
GADM-IRL.23_1
GADM-IRL.24_1
GADM-IRL.25_1
GADM-IRL.26_1
GADM-IRL.2_1
GADM-IRL.3_1
GADM-IRL.4_1
GADM-IRL.5_1
GADM-IRL.6_1
GADM-IRL.7_1
GADM-IRL.8_1
GADM-IRL.9_1
GADM-IRN.10_1
GADM-IRN.11_1
GADM-IRN.12_1
GADM-IRN.13_1
GADM-IRN.14_1
GADM-IRN.15_1
GADM-IRN.16_1
GADM-IRN.17_1
GADM-IRN.18_1
GADM-IRN.19_1
GADM-IRN.1_1
GADM-IRN.20_1
GADM-IRN.21_1
GADM-IRN.22_1
GADM-IRN.23_1
GADM-IRN.24_1
GADM-IRN.25_1
GADM-IRN.26_1
GADM-IRN.27_1
GADM-IRN.28_1
GADM-IRN.29_1
GADM-IRN.2_1
GADM-IRN.30_1
GADM-IRN.31_1
GADM-IRN.3_1
GADM-IRN.4_1
GADM-IRN.5_1
GADM-IRN.6_1
GADM-IRN.7_1
GADM-IRN.8_1
GADM-IRN.9_1
GADM-IRQ.10_1
GADM-IRQ.11_1
GADM-IRQ.12_1
GADM-IRQ.13_1
GADM-IRQ.14_1
GADM-IRQ.15_1
GADM-IRQ.16_1
GADM-IRQ.17_1
GADM-IRQ.18_1
GADM-IRQ.1_1
GADM-IRQ.2_1
GADM-IRQ.3_1
GADM-IRQ.4_1
GADM-IRQ.5_1
GADM-IRQ.6_1
GADM-IRQ.7_1
GADM-IRQ.8_1
GADM-IRQ.9_1
GADM-ISL.1_1
GADM-ISL.2_1
GADM-ISL.3_1
GADM-ISL.4_1
GADM-ISL.5_1
GADM-ISL.6_1
GADM-ISL.7_1
GADM-ISL.8_1
GADM-ISR.1_1
GADM-ISR.2_1
GADM-ISR.3_1
GADM-ISR.4_1
GADM-ISR.5_1
GADM-ISR.6_1
GADM-ISR.7_1
GADM-ITA.10_1
GADM-ITA.11_1
GADM-ITA.12_1
GADM-ITA.13_1
GADM-ITA.14_1
GADM-ITA.15_1
GADM-ITA.16_1
GADM-ITA.17_1
GADM-ITA.18_1
GADM-ITA.19_1
GADM-ITA.1_1
GADM-ITA.20_1
GADM-ITA.2_1
GADM-ITA.3_1
GADM-ITA.4_1
GADM-ITA.5_1
GADM-ITA.6_1
GADM-ITA.7_1
GADM-ITA.8_1
GADM-ITA.9_1
GADM-JAM.10_1
GADM-JAM.11_1
GADM-JAM.12_1
GADM-JAM.13_1
GADM-JAM.14_1
GADM-JAM.1_1
GADM-JAM.2_1
GADM-JAM.3_1
GADM-JAM.4_1
GADM-JAM.5_1
GADM-JAM.6_1
GADM-JAM.7_1
GADM-JAM.8_1
GADM-JAM.9_1
GADM-JEY.10_1
GADM-JEY.11_1
GADM-JEY.12_1
GADM-JEY.1_1
GADM-JEY.2_1
GADM-JEY.3_1
GADM-JEY.4_1
GADM-JEY.5_1
GADM-JEY.6_1
GADM-JEY.7_1
GADM-JEY.8_1
GADM-JEY.9_1
GADM-JOR.10_1
GADM-JOR.11_1
GADM-JOR.12_1
GADM-JOR.1_1
GADM-JOR.2_1
GADM-JOR.3_1
GADM-JOR.4_1
GADM-JOR.5_1
GADM-JOR.6_1
GADM-JOR.7_1
GADM-JOR.8_1
GADM-JOR.9_1
GADM-JPN.10_1
GADM-JPN.11_1
GADM-JPN.12_1
GADM-JPN.13_1
GADM-JPN.14_1
GADM-JPN.15_1
GADM-JPN.16_1
GADM-JPN.17_1
GADM-JPN.18_1
GADM-JPN.19_1
GADM-JPN.1_1
GADM-JPN.20_1
GADM-JPN.21_1
GADM-JPN.22_1
GADM-JPN.23_1
GADM-JPN.24_1
GADM-JPN.25_1
GADM-JPN.26_1
GADM-JPN.27_1
GADM-JPN.28_1
GADM-JPN.29_1
GADM-JPN.2_1
GADM-JPN.30_1
GADM-JPN.31_1
GADM-JPN.32_1
GADM-JPN.33_1
GADM-JPN.34_1
GADM-JPN.35_1
GADM-JPN.36_1
GADM-JPN.37_1
GADM-JPN.38_1
GADM-JPN.39_1
GADM-JPN.3_1
GADM-JPN.40_1
GADM-JPN.41_1
GADM-JPN.42_1
GADM-JPN.43_1
GADM-JPN.44_1
GADM-JPN.45_1
GADM-JPN.46_1
GADM-JPN.47_1
GADM-JPN.4_1
GADM-JPN.5_1
GADM-JPN.6_1
GADM-JPN.7_1
GADM-JPN.8_1
GADM-JPN.9_1
GADM-KAZ.10_1
GADM-KAZ.11_1
GADM-KAZ.12_1
GADM-KAZ.13_1
GADM-KAZ.14_1
GADM-KAZ.1_1
GADM-KAZ.2_1
GADM-KAZ.3_1
GADM-KAZ.4_1
GADM-KAZ.5_1
GADM-KAZ.6_1
GADM-KAZ.7_1
GADM-KAZ.8_1
GADM-KAZ.9_1
GADM-KEN.10_1
GADM-KEN.11_1
GADM-KEN.12_1
GADM-KEN.13_1
GADM-KEN.14_1
GADM-KEN.15_1
GADM-KEN.16_1
GADM-KEN.17_1
GADM-KEN.18_1
GADM-KEN.19_1
GADM-KEN.1_1
GADM-KEN.20_1
GADM-KEN.21_1
GADM-KEN.22_1
GADM-KEN.23_1
GADM-KEN.24_1
GADM-KEN.25_1
GADM-KEN.26_1
GADM-KEN.27_1
GADM-KEN.28_1
GADM-KEN.29_1
GADM-KEN.2_1
GADM-KEN.30_1
GADM-KEN.31_1
GADM-KEN.32_1
GADM-KEN.33_1
GADM-KEN.34_1
GADM-KEN.35_1
GADM-KEN.36_1
GADM-KEN.37_1
GADM-KEN.38_1
GADM-KEN.39_1
GADM-KEN.3_1
GADM-KEN.40_1
GADM-KEN.41_1
GADM-KEN.42_1
GADM-KEN.43_1
GADM-KEN.44_1
GADM-KEN.45_1
GADM-KEN.46_1
GADM-KEN.47_1
GADM-KEN.4_1
GADM-KEN.5_1
GADM-KEN.6_1
GADM-KEN.7_1
GADM-KEN.8_1
GADM-KEN.9_1
GADM-KGZ.1_1
GADM-KGZ.2_1
GADM-KGZ.3_1
GADM-KGZ.4_1
GADM-KGZ.5_1
GADM-KGZ.6_1
GADM-KGZ.7_1
GADM-KGZ.8_1
GADM-KGZ.9_1
GADM-KHM.10_1
GADM-KHM.11_1
GADM-KHM.12_1
GADM-KHM.13_1
GADM-KHM.14_1
GADM-KHM.15_1
GADM-KHM.16_1
GADM-KHM.17_1
GADM-KHM.18_1
GADM-KHM.19_1
GADM-KHM.1_1
GADM-KHM.20_1
GADM-KHM.21_1
GADM-KHM.22_1
GADM-KHM.23_1
GADM-KHM.24_1
GADM-KHM.25_1
GADM-KHM.2_1
GADM-KHM.3_1
GADM-KHM.4_1
GADM-KHM.5_1
GADM-KHM.6_1
GADM-KHM.7_1
GADM-KHM.8_1
GADM-KHM.9_1
GADM-KNA.10_1
GADM-KNA.11_1
GADM-KNA.12_1
GADM-KNA.13_1
GADM-KNA.14_1
GADM-KNA.1_1
GADM-KNA.2_1
GADM-KNA.3_1
GADM-KNA.4_1
GADM-KNA.5_1
GADM-KNA.6_1
GADM-KNA.7_1
GADM-KNA.8_1
GADM-KNA.9_1
GADM-KOR.10_1
GADM-KOR.11_1
GADM-KOR.12_1
GADM-KOR.13_1
GADM-KOR.14_1
GADM-KOR.15_1
GADM-KOR.16_1
GADM-KOR.17_1
GADM-KOR.1_1
GADM-KOR.2_1
GADM-KOR.3_1
GADM-KOR.4_1
GADM-KOR.5_1
GADM-KOR.6_1
GADM-KOR.7_1
GADM-KOR.8_1
GADM-KOR.9_1
GADM-KWT.1_1
GADM-KWT.2_1
GADM-KWT.3_1
GADM-KWT.4_1
GADM-KWT.5_1
GADM-KWT.6_1
GADM-LAO.10_1
GADM-LAO.11_1
GADM-LAO.12_1
GADM-LAO.13_1
GADM-LAO.14_1
GADM-LAO.15_1
GADM-LAO.16_1
GADM-LAO.17_1
GADM-LAO.18_1
GADM-LAO.1_1
GADM-LAO.2_1
GADM-LAO.3_1
GADM-LAO.4_1
GADM-LAO.5_1
GADM-LAO.6_1
GADM-LAO.7_1
GADM-LAO.8_1
GADM-LAO.9_1
GADM-LBN.1_1
GADM-LBN.2_1
GADM-LBN.3_1
GADM-LBN.4_1
GADM-LBN.5_1
GADM-LBN.6_1
GADM-LBN.7_1
GADM-LBN.8_1
GADM-LBR.10_1
GADM-LBR.11_1
GADM-LBR.12_1
GADM-LBR.13_1
GADM-LBR.14_1
GADM-LBR.15_1
GADM-LBR.1_1
GADM-LBR.2_1
GADM-LBR.3_1
GADM-LBR.4_1
GADM-LBR.5_1
GADM-LBR.6_1
GADM-LBR.7_1
GADM-LBR.8_1
GADM-LBR.9_1
GADM-LBY.10_1
GADM-LBY.11_1
GADM-LBY.12_1
GADM-LBY.13_1
GADM-LBY.14_1
GADM-LBY.15_1
GADM-LBY.16_1
GADM-LBY.17_1
GADM-LBY.18_1
GADM-LBY.19_1
GADM-LBY.1_1
GADM-LBY.20_1
GADM-LBY.21_1
GADM-LBY.22_1
GADM-LBY.2_1
GADM-LBY.3_1
GADM-LBY.4_1
GADM-LBY.5_1
GADM-LBY.6_1
GADM-LBY.7_1
GADM-LBY.8_1
GADM-LBY.9_1
GADM-LCA.10_1
GADM-LCA.1_1
GADM-LCA.2_1
GADM-LCA.3_1
GADM-LCA.4_1
GADM-LCA.5_1
GADM-LCA.6_1
GADM-LCA.7_1
GADM-LCA.8_1
GADM-LCA.9_1
GADM-LIE.10_1
GADM-LIE.11_1
GADM-LIE.1_1
GADM-LIE.2_1
GADM-LIE.3_1
GADM-LIE.4_1
GADM-LIE.5_1
GADM-LIE.6_1
GADM-LIE.7_1
GADM-LIE.8_1
GADM-LIE.9_1
GADM-LKA.10_1
GADM-LKA.11_1
GADM-LKA.12_1
GADM-LKA.13_1
GADM-LKA.14_1
GADM-LKA.15_1
GADM-LKA.16_1
GADM-LKA.17_1
GADM-LKA.18_1
GADM-LKA.19_1
GADM-LKA.1_1
GADM-LKA.20_1
GADM-LKA.21_1
GADM-LKA.22_1
GADM-LKA.23_1
GADM-LKA.24_1
GADM-LKA.25_1
GADM-LKA.2_1
GADM-LKA.3_1
GADM-LKA.4_1
GADM-LKA.5_1
GADM-LKA.6_1
GADM-LKA.7_1
GADM-LKA.8_1
GADM-LKA.9_1
GADM-LSO.10_1
GADM-LSO.1_1
GADM-LSO.2_1
GADM-LSO.3_1
GADM-LSO.4_1
GADM-LSO.5_1
GADM-LSO.6_1
GADM-LSO.7_1
GADM-LSO.8_1
GADM-LSO.9_1
GADM-LTU.10_1
GADM-LTU.1_1
GADM-LTU.2_1
GADM-LTU.3_1
GADM-LTU.4_1
GADM-LTU.5_1
GADM-LTU.6_1
GADM-LTU.7_1
GADM-LTU.8_1
GADM-LTU.9_1
GADM-LUX.1_1
GADM-LUX.2_1
GADM-LUX.3_1
GADM-LVA.1_1
GADM-LVA.2_1
GADM-LVA.3_1
GADM-LVA.4_1
GADM-LVA.5_1
GADM-MAC.1_1
GADM-MAC.2_1
GADM-MAR.10_1
GADM-MAR.11_1
GADM-MAR.12_1
GADM-MAR.13_1
GADM-MAR.14_1
GADM-MAR.15_1
GADM-MAR.1_1
GADM-MAR.2_1
GADM-MAR.3_1
GADM-MAR.4_1
GADM-MAR.5_1
GADM-MAR.6_1
GADM-MAR.7_1
GADM-MAR.8_1
GADM-MAR.9_1
GADM-MDA.10_1
GADM-MDA.11_1
GADM-MDA.12_1
GADM-MDA.13_1
GADM-MDA.14_1
GADM-MDA.15_1
GADM-MDA.16_1
GADM-MDA.17_1
GADM-MDA.18_1
GADM-MDA.19_1
GADM-MDA.1_1
GADM-MDA.20_1
GADM-MDA.21_1
GADM-MDA.22_1
GADM-MDA.23_1
GADM-MDA.24_1
GADM-MDA.25_1
GADM-MDA.26_1
GADM-MDA.27_1
GADM-MDA.28_1
GADM-MDA.29_1
GADM-MDA.2_1
GADM-MDA.30_1
GADM-MDA.31_1
GADM-MDA.32_1
GADM-MDA.33_1
GADM-MDA.34_1
GADM-MDA.35_1
GADM-MDA.36_1
GADM-MDA.37_1
GADM-MDA.3_1
GADM-MDA.4_1
GADM-MDA.5_1
GADM-MDA.6_1
GADM-MDA.7_1
GADM-MDA.8_1
GADM-MDA.9_1
GADM-MDG.1_1
GADM-MDG.2_1
GADM-MDG.3_1
GADM-MDG.4_1
GADM-MDG.5_1
GADM-MDG.6_1
GADM-MEX.10_1
GADM-MEX.11_1
GADM-MEX.12_1
GADM-MEX.13_1
GADM-MEX.14_1
GADM-MEX.15_1
GADM-MEX.16_1
GADM-MEX.17_1
GADM-MEX.18_1
GADM-MEX.19_1
GADM-MEX.1_1
GADM-MEX.20_1
GADM-MEX.21_1
GADM-MEX.22_1
GADM-MEX.23_1
GADM-MEX.24_1
GADM-MEX.25_1
GADM-MEX.26_1
GADM-MEX.27_1
GADM-MEX.28_1
GADM-MEX.29_1
GADM-MEX.2_1
GADM-MEX.30_1
GADM-MEX.31_1
GADM-MEX.32_1
GADM-MEX.3_1
GADM-MEX.4_1
GADM-MEX.5_1
GADM-MEX.6_1
GADM-MEX.7_1
GADM-MEX.8_1
GADM-MEX.9_1
GADM-MKD.10_1
GADM-MKD.11_1
GADM-MKD.12_1
GADM-MKD.13_1
GADM-MKD.14_1
GADM-MKD.15_1
GADM-MKD.16_1
GADM-MKD.17_1
GADM-MKD.18_1
GADM-MKD.19_1
GADM-MKD.1_1
GADM-MKD.20_1
GADM-MKD.21_1
GADM-MKD.22_1
GADM-MKD.23_1
GADM-MKD.24_1
GADM-MKD.25_1
GADM-MKD.26_1
GADM-MKD.27_1
GADM-MKD.28_1
GADM-MKD.29_1
GADM-MKD.2_1
GADM-MKD.30_1
GADM-MKD.31_1
GADM-MKD.32_1
GADM-MKD.33_1
GADM-MKD.34_1
GADM-MKD.35_1
GADM-MKD.36_1
GADM-MKD.37_1
GADM-MKD.38_1
GADM-MKD.39_1
GADM-MKD.3_1
GADM-MKD.40_1
GADM-MKD.41_1
GADM-MKD.42_1
GADM-MKD.43_1
GADM-MKD.44_1
GADM-MKD.45_1
GADM-MKD.46_1
GADM-MKD.47_1
GADM-MKD.48_1
GADM-MKD.49_1
GADM-MKD.4_1
GADM-MKD.50_1
GADM-MKD.51_1
GADM-MKD.52_1
GADM-MKD.53_1
GADM-MKD.54_1
GADM-MKD.55_1
GADM-MKD.56_1
GADM-MKD.57_1
GADM-MKD.58_1
GADM-MKD.59_1
GADM-MKD.5_1
GADM-MKD.60_1
GADM-MKD.61_1
GADM-MKD.62_1
GADM-MKD.63_1
GADM-MKD.64_1
GADM-MKD.65_1
GADM-MKD.66_1
GADM-MKD.67_1
GADM-MKD.68_1
GADM-MKD.69_1
GADM-MKD.6_1
GADM-MKD.70_1
GADM-MKD.71_1
GADM-MKD.72_1
GADM-MKD.73_1
GADM-MKD.74_1
GADM-MKD.75_1
GADM-MKD.76_1
GADM-MKD.77_1
GADM-MKD.78_1
GADM-MKD.79_1
GADM-MKD.7_1
GADM-MKD.80_1
GADM-MKD.81_1
GADM-MKD.82_1
GADM-MKD.83_1
GADM-MKD.84_1
GADM-MKD.85_1
GADM-MKD.8_1
GADM-MKD.9_1
GADM-MLI.1_1
GADM-MLI.2_1
GADM-MLI.3_1
GADM-MLI.4_1
GADM-MLI.5_1
GADM-MLI.6_1
GADM-MLI.7_1
GADM-MLI.8_1
GADM-MLI.9_1
GADM-MLT.1_1
GADM-MLT.2_1
GADM-MLT.3_1
GADM-MLT.4_1
GADM-MLT.5_1
GADM-MMR.10_1
GADM-MMR.11_1
GADM-MMR.12_1
GADM-MMR.13_1
GADM-MMR.14_1
GADM-MMR.15_1
GADM-MMR.1_1
GADM-MMR.2_1
GADM-MMR.3_1
GADM-MMR.4_1
GADM-MMR.5_1
GADM-MMR.6_1
GADM-MMR.7_1
GADM-MMR.8_1
GADM-MMR.9_1
GADM-MNE.10_1
GADM-MNE.11_1
GADM-MNE.12_1
GADM-MNE.13_1
GADM-MNE.14_1
GADM-MNE.15_1
GADM-MNE.16_1
GADM-MNE.17_1
GADM-MNE.18_1
GADM-MNE.19_1
GADM-MNE.1_1
GADM-MNE.20_1
GADM-MNE.21_1
GADM-MNE.2_1
GADM-MNE.3_1
GADM-MNE.4_1
GADM-MNE.5_1
GADM-MNE.6_1
GADM-MNE.7_1
GADM-MNE.8_1
GADM-MNE.9_1
GADM-MNG.10_1
GADM-MNG.11_1
GADM-MNG.12_1
GADM-MNG.13_1
GADM-MNG.14_1
GADM-MNG.15_1
GADM-MNG.16_1
GADM-MNG.17_1
GADM-MNG.18_1
GADM-MNG.19_1
GADM-MNG.1_1
GADM-MNG.20_1
GADM-MNG.21_1
GADM-MNG.22_1
GADM-MNG.2_1
GADM-MNG.3_1
GADM-MNG.4_1
GADM-MNG.5_1
GADM-MNG.6_1
GADM-MNG.7_1
GADM-MNG.8_1
GADM-MNG.9_1
GADM-MNP.1_1
GADM-MNP.2_1
GADM-MNP.3_1
GADM-MNP.4_1
GADM-MOZ.10_1
GADM-MOZ.11_1
GADM-MOZ.1_1
GADM-MOZ.2_1
GADM-MOZ.3_1
GADM-MOZ.4_1
GADM-MOZ.5_1
GADM-MOZ.6_1
GADM-MOZ.7_1
GADM-MOZ.8_1
GADM-MOZ.9_1
GADM-MRT.10_1
GADM-MRT.11_1
GADM-MRT.12_1
GADM-MRT.13_1
GADM-MRT.1_1
GADM-MRT.2_1
GADM-MRT.3_1
GADM-MRT.4_1
GADM-MRT.5_1
GADM-MRT.6_1
GADM-MRT.7_1
GADM-MRT.8_1
GADM-MRT.9_1
GADM-MSR.1_1
GADM-MSR.2_1
GADM-MSR.3_1
GADM-MTQ.1_1
GADM-MTQ.2_1
GADM-MTQ.3_1
GADM-MTQ.4_1
GADM-MUS.10_1
GADM-MUS.11_1
GADM-MUS.12_1
GADM-MUS.1_1
GADM-MUS.2_1
GADM-MUS.3_1
GADM-MUS.4_1
GADM-MUS.5_1
GADM-MUS.6_1
GADM-MUS.7_1
GADM-MUS.8_1
GADM-MUS.9_1
GADM-MWI.10_1
GADM-MWI.11_1
GADM-MWI.12_1
GADM-MWI.13_1
GADM-MWI.14_1
GADM-MWI.15_1
GADM-MWI.16_1
GADM-MWI.17_1
GADM-MWI.18_1
GADM-MWI.19_1
GADM-MWI.1_1
GADM-MWI.20_1
GADM-MWI.21_1
GADM-MWI.22_1
GADM-MWI.23_1
GADM-MWI.24_1
GADM-MWI.25_1
GADM-MWI.26_1
GADM-MWI.27_1
GADM-MWI.28_1
GADM-MWI.2_1
GADM-MWI.3_1
GADM-MWI.4_1
GADM-MWI.5_1
GADM-MWI.6_1
GADM-MWI.7_1
GADM-MWI.8_1
GADM-MWI.9_1
GADM-MYS.10_1
GADM-MYS.11_1
GADM-MYS.12_1
GADM-MYS.13_1
GADM-MYS.14_1
GADM-MYS.15_1
GADM-MYS.16_1
GADM-MYS.1_1
GADM-MYS.2_1
GADM-MYS.3_1
GADM-MYS.4_1
GADM-MYS.5_1
GADM-MYS.6_1
GADM-MYS.7_1
GADM-MYS.8_1
GADM-MYS.9_1
GADM-MYT.10_1
GADM-MYT.11_1
GADM-MYT.12_1
GADM-MYT.13_1
GADM-MYT.14_1
GADM-MYT.15_1
GADM-MYT.16_1
GADM-MYT.17_1
GADM-MYT.1_1
GADM-MYT.2_1
GADM-MYT.3_1
GADM-MYT.4_1
GADM-MYT.5_1
GADM-MYT.6_1
GADM-MYT.7_1
GADM-MYT.8_1
GADM-MYT.9_1
GADM-NAM.10_1
GADM-NAM.11_1
GADM-NAM.12_1
GADM-NAM.13_1
GADM-NAM.1_1
GADM-NAM.2_1
GADM-NAM.3_1
GADM-NAM.4_1
GADM-NAM.5_1
GADM-NAM.6_1
GADM-NAM.7_1
GADM-NAM.8_1
GADM-NAM.9_1
GADM-NCL.1_1
GADM-NCL.2_1
GADM-NCL.3_1
GADM-NER.1_1
GADM-NER.2_1
GADM-NER.3_1
GADM-NER.4_1
GADM-NER.5_1
GADM-NER.6_1
GADM-NER.7_1
GADM-NER.8_1
GADM-NGA.10_1
GADM-NGA.11_1
GADM-NGA.12_1
GADM-NGA.13_1
GADM-NGA.14_1
GADM-NGA.15_1
GADM-NGA.16_1
GADM-NGA.17_1
GADM-NGA.18_1
GADM-NGA.19_1
GADM-NGA.1_1
GADM-NGA.20_1
GADM-NGA.21_1
GADM-NGA.22_1
GADM-NGA.23_1
GADM-NGA.24_1
GADM-NGA.25_1
GADM-NGA.26_1
GADM-NGA.27_1
GADM-NGA.28_1
GADM-NGA.29_1
GADM-NGA.2_1
GADM-NGA.30_1
GADM-NGA.31_1
GADM-NGA.32_1
GADM-NGA.33_1
GADM-NGA.34_1
GADM-NGA.35_1
GADM-NGA.36_1
GADM-NGA.37_1
GADM-NGA.3_1
GADM-NGA.4_1
GADM-NGA.5_1
GADM-NGA.6_1
GADM-NGA.7_1
GADM-NGA.8_1
GADM-NGA.9_1
GADM-NIC.10_1
GADM-NIC.11_1
GADM-NIC.12_1
GADM-NIC.13_1
GADM-NIC.14_1
GADM-NIC.15_1
GADM-NIC.16_1
GADM-NIC.17_1
GADM-NIC.18_1
GADM-NIC.1_1
GADM-NIC.2_1
GADM-NIC.3_1
GADM-NIC.4_1
GADM-NIC.5_1
GADM-NIC.6_1
GADM-NIC.7_1
GADM-NIC.8_1
GADM-NIC.9_1
GADM-NLD.10_1
GADM-NLD.11_1
GADM-NLD.12_1
GADM-NLD.13_1
GADM-NLD.14_1
GADM-NLD.1_1
GADM-NLD.2_1
GADM-NLD.3_1
GADM-NLD.4_1
GADM-NLD.5_1
GADM-NLD.6_1
GADM-NLD.7_1
GADM-NLD.8_1
GADM-NLD.9_1
GADM-NOR.10_1
GADM-NOR.11_1
GADM-NOR.12_1
GADM-NOR.13_1
GADM-NOR.14_1
GADM-NOR.15_1
GADM-NOR.16_1
GADM-NOR.17_1
GADM-NOR.18_1
GADM-NOR.19_1
GADM-NOR.1_1
GADM-NOR.2_1
GADM-NOR.3_1
GADM-NOR.4_1
GADM-NOR.5_1
GADM-NOR.6_1
GADM-NOR.7_1
GADM-NOR.8_1
GADM-NOR.9_1
GADM-NPL.1_1
GADM-NPL.2_1
GADM-NPL.3_1
GADM-NPL.4_1
GADM-NPL.5_1
GADM-NRU.10_1
GADM-NRU.11_1
GADM-NRU.12_1
GADM-NRU.13_1
GADM-NRU.14_1
GADM-NRU.1_1
GADM-NRU.2_1
GADM-NRU.3_1
GADM-NRU.4_1
GADM-NRU.5_1
GADM-NRU.6_1
GADM-NRU.7_1
GADM-NRU.8_1
GADM-NRU.9_1
GADM-NZL.10_1
GADM-NZL.11_1
GADM-NZL.12_1
GADM-NZL.13_1
GADM-NZL.14_1
GADM-NZL.15_1
GADM-NZL.16_1
GADM-NZL.17_1
GADM-NZL.18_1
GADM-NZL.19_1
GADM-NZL.1_1
GADM-NZL.2_1
GADM-NZL.3_1
GADM-NZL.4_1
GADM-NZL.5_1
GADM-NZL.6_1
GADM-NZL.7_1
GADM-NZL.8_1
GADM-NZL.9_1
GADM-OMN.10_1
GADM-OMN.11_1
GADM-OMN.1_1
GADM-OMN.2_1
GADM-OMN.3_1
GADM-OMN.4_1
GADM-OMN.5_1
GADM-OMN.6_1
GADM-OMN.7_1
GADM-OMN.8_1
GADM-OMN.9_1
GADM-PAK.1_1
GADM-PAK.2_1
GADM-PAK.3_1
GADM-PAK.4_1
GADM-PAK.5_1
GADM-PAK.6_1
GADM-PAK.7_1
GADM-PAK.8_1
GADM-PAN.10_1
GADM-PAN.11_1
GADM-PAN.12_1
GADM-PAN.13_1
GADM-PAN.1_1
GADM-PAN.2_1
GADM-PAN.3_1
GADM-PAN.4_1
GADM-PAN.5_1
GADM-PAN.6_1
GADM-PAN.7_1
GADM-PAN.8_1
GADM-PAN.9_1
GADM-PER.10_1
GADM-PER.11_1
GADM-PER.12_1
GADM-PER.13_1
GADM-PER.14_1
GADM-PER.15_1
GADM-PER.16_1
GADM-PER.17_1
GADM-PER.18_1
GADM-PER.19_1
GADM-PER.1_1
GADM-PER.20_1
GADM-PER.21_1
GADM-PER.22_1
GADM-PER.23_1
GADM-PER.24_1
GADM-PER.25_1
GADM-PER.26_1
GADM-PER.2_1
GADM-PER.3_1
GADM-PER.4_1
GADM-PER.5_1
GADM-PER.6_1
GADM-PER.7_1
GADM-PER.8_1
GADM-PER.9_1
GADM-PHL.10_1
GADM-PHL.11_1
GADM-PHL.12_1
GADM-PHL.13_1
GADM-PHL.14_1
GADM-PHL.15_1
GADM-PHL.16_1
GADM-PHL.17_1
GADM-PHL.18_1
GADM-PHL.19_1
GADM-PHL.1_1
GADM-PHL.20_1
GADM-PHL.21_1
GADM-PHL.22_1
GADM-PHL.23_1
GADM-PHL.24_1
GADM-PHL.25_1
GADM-PHL.26_1
GADM-PHL.27_1
GADM-PHL.28_1
GADM-PHL.29_1
GADM-PHL.2_1
GADM-PHL.30_1
GADM-PHL.31_1
GADM-PHL.32_1
GADM-PHL.33_1
GADM-PHL.34_1
GADM-PHL.35_1
GADM-PHL.36_1
GADM-PHL.37_1
GADM-PHL.38_1
GADM-PHL.39_1
GADM-PHL.3_1
GADM-PHL.40_1
GADM-PHL.41_1
GADM-PHL.42_1
GADM-PHL.43_1
GADM-PHL.44_1
GADM-PHL.45_1
GADM-PHL.46_1
GADM-PHL.47_1
GADM-PHL.48_1
GADM-PHL.49_1
GADM-PHL.4_1
GADM-PHL.50_1
GADM-PHL.51_1
GADM-PHL.52_1
GADM-PHL.53_1
GADM-PHL.54_1
GADM-PHL.55_1
GADM-PHL.56_1
GADM-PHL.57_1
GADM-PHL.58_1
GADM-PHL.59_1
GADM-PHL.5_1
GADM-PHL.60_1
GADM-PHL.61_1
GADM-PHL.62_1
GADM-PHL.63_1
GADM-PHL.64_1
GADM-PHL.65_1
GADM-PHL.66_1
GADM-PHL.67_1
GADM-PHL.68_1
GADM-PHL.69_1
GADM-PHL.6_1
GADM-PHL.70_1
GADM-PHL.71_1
GADM-PHL.72_1
GADM-PHL.73_1
GADM-PHL.74_1
GADM-PHL.75_1
GADM-PHL.76_1
GADM-PHL.77_1
GADM-PHL.78_1
GADM-PHL.79_1
GADM-PHL.7_1
GADM-PHL.80_1
GADM-PHL.81_1
GADM-PHL.8_1
GADM-PHL.9_1
GADM-PLW.10_1
GADM-PLW.11_1
GADM-PLW.12_1
GADM-PLW.13_1
GADM-PLW.14_1
GADM-PLW.15_1
GADM-PLW.16_1
GADM-PLW.1_1
GADM-PLW.2_1
GADM-PLW.3_1
GADM-PLW.4_1
GADM-PLW.5_1
GADM-PLW.6_1
GADM-PLW.7_1
GADM-PLW.8_1
GADM-PLW.9_1
GADM-PNG.10_1
GADM-PNG.11_1
GADM-PNG.12_1
GADM-PNG.13_1
GADM-PNG.14_1
GADM-PNG.15_1
GADM-PNG.16_1
GADM-PNG.17_1
GADM-PNG.18_1
GADM-PNG.19_1
GADM-PNG.1_1
GADM-PNG.20_1
GADM-PNG.21_1
GADM-PNG.22_1
GADM-PNG.2_1
GADM-PNG.3_1
GADM-PNG.4_1
GADM-PNG.5_1
GADM-PNG.6_1
GADM-PNG.7_1
GADM-PNG.8_1
GADM-PNG.9_1
GADM-POL.10_1
GADM-POL.11_1
GADM-POL.12_1
GADM-POL.13_1
GADM-POL.14_1
GADM-POL.15_1
GADM-POL.16_1
GADM-POL.1_1
GADM-POL.2_1
GADM-POL.3_1
GADM-POL.4_1
GADM-POL.5_1
GADM-POL.6_1
GADM-POL.7_1
GADM-POL.8_1
GADM-POL.9_1
GADM-PRI.10_1
GADM-PRI.11_1
GADM-PRI.12_1
GADM-PRI.13_1
GADM-PRI.14_1
GADM-PRI.15_1
GADM-PRI.16_1
GADM-PRI.17_1
GADM-PRI.18_1
GADM-PRI.19_1
GADM-PRI.1_1
GADM-PRI.20_1
GADM-PRI.21_1
GADM-PRI.22_1
GADM-PRI.23_1
GADM-PRI.24_1
GADM-PRI.25_1
GADM-PRI.26_1
GADM-PRI.27_1
GADM-PRI.28_1
GADM-PRI.29_1
GADM-PRI.2_1
GADM-PRI.30_1
GADM-PRI.31_1
GADM-PRI.32_1
GADM-PRI.33_1
GADM-PRI.34_1
GADM-PRI.35_1
GADM-PRI.36_1
GADM-PRI.37_1
GADM-PRI.38_1
GADM-PRI.39_1
GADM-PRI.3_1
GADM-PRI.40_1
GADM-PRI.41_1
GADM-PRI.42_1
GADM-PRI.43_1
GADM-PRI.44_1
GADM-PRI.45_1
GADM-PRI.46_1
GADM-PRI.47_1
GADM-PRI.48_1
GADM-PRI.49_1
GADM-PRI.4_1
GADM-PRI.50_1
GADM-PRI.51_1
GADM-PRI.52_1
GADM-PRI.53_1
GADM-PRI.54_1
GADM-PRI.55_1
GADM-PRI.56_1
GADM-PRI.57_1
GADM-PRI.58_1
GADM-PRI.59_1
GADM-PRI.5_1
GADM-PRI.60_1
GADM-PRI.61_1
GADM-PRI.62_1
GADM-PRI.63_1
GADM-PRI.64_1
GADM-PRI.65_1
GADM-PRI.66_1
GADM-PRI.67_1
GADM-PRI.68_1
GADM-PRI.69_1
GADM-PRI.6_1
GADM-PRI.70_1
GADM-PRI.71_1
GADM-PRI.72_1
GADM-PRI.73_1
GADM-PRI.74_1
GADM-PRI.75_1
GADM-PRI.76_1
GADM-PRI.77_1
GADM-PRI.78_1
GADM-PRI.7_1
GADM-PRI.8_1
GADM-PRI.9_1
GADM-PRK.10_1
GADM-PRK.11_1
GADM-PRK.12_1
GADM-PRK.13_1
GADM-PRK.14_1
GADM-PRK.1_1
GADM-PRK.2_1
GADM-PRK.3_1
GADM-PRK.4_1
GADM-PRK.5_1
GADM-PRK.6_1
GADM-PRK.7_1
GADM-PRK.8_1
GADM-PRK.9_1
GADM-PRT.10_1
GADM-PRT.11_1
GADM-PRT.12_1
GADM-PRT.13_1
GADM-PRT.14_1
GADM-PRT.15_1
GADM-PRT.16_1
GADM-PRT.17_1
GADM-PRT.18_1
GADM-PRT.19_1
GADM-PRT.1_1
GADM-PRT.20_1
GADM-PRT.2_1
GADM-PRT.3_1
GADM-PRT.4_1
GADM-PRT.5_1
GADM-PRT.6_1
GADM-PRT.7_1
GADM-PRT.8_1
GADM-PRT.9_1
GADM-PRY.10_1
GADM-PRY.11_1
GADM-PRY.12_1
GADM-PRY.13_1
GADM-PRY.14_1
GADM-PRY.15_1
GADM-PRY.16_1
GADM-PRY.17_1
GADM-PRY.18_1
GADM-PRY.1_1
GADM-PRY.2_1
GADM-PRY.3_1
GADM-PRY.4_1
GADM-PRY.5_1
GADM-PRY.6_1
GADM-PRY.7_1
GADM-PRY.8_1
GADM-PRY.9_1
GADM-PSE.1_1
GADM-PSE.2_1
GADM-PYF.1_1
GADM-PYF.2_1
GADM-PYF.3_1
GADM-PYF.4_1
GADM-PYF.5_1
GADM-QAT.1_1
GADM-QAT.2_1
GADM-QAT.3_1
GADM-QAT.4_1
GADM-QAT.5_1
GADM-QAT.6_1
GADM-QAT.7_1
GADM-REU.1_1
GADM-REU.2_1
GADM-REU.3_1
GADM-REU.4_1
GADM-ROU.10_1
GADM-ROU.11_1
GADM-ROU.12_1
GADM-ROU.13_1
GADM-ROU.14_1
GADM-ROU.15_1
GADM-ROU.16_1
GADM-ROU.17_1
GADM-ROU.18_1
GADM-ROU.19_1
GADM-ROU.1_1
GADM-ROU.20_1
GADM-ROU.21_1
GADM-ROU.22_1
GADM-ROU.23_1
GADM-ROU.24_1
GADM-ROU.25_1
GADM-ROU.26_1
GADM-ROU.27_1
GADM-ROU.28_1
GADM-ROU.29_1
GADM-ROU.2_1
GADM-ROU.30_1
GADM-ROU.31_1
GADM-ROU.32_1
GADM-ROU.33_1
GADM-ROU.34_1
GADM-ROU.35_1
GADM-ROU.36_1
GADM-ROU.37_1
GADM-ROU.38_1
GADM-ROU.39_1
GADM-ROU.3_1
GADM-ROU.40_1
GADM-ROU.41_1
GADM-ROU.42_1
GADM-ROU.4_1
GADM-ROU.5_1
GADM-ROU.6_1
GADM-ROU.7_1
GADM-ROU.8_1
GADM-ROU.9_1
GADM-RUS.10_1
GADM-RUS.11_1
GADM-RUS.12_1
GADM-RUS.13_1
GADM-RUS.14_1
GADM-RUS.15_1
GADM-RUS.16_1
GADM-RUS.17_1
GADM-RUS.18_1
GADM-RUS.19_1
GADM-RUS.1_1
GADM-RUS.20_1
GADM-RUS.21_1
GADM-RUS.22_1
GADM-RUS.23_1
GADM-RUS.24_1
GADM-RUS.25_1
GADM-RUS.26_1
GADM-RUS.27_1
GADM-RUS.28_1
GADM-RUS.29_1
GADM-RUS.2_1
GADM-RUS.30_1
GADM-RUS.31_1
GADM-RUS.32_1
GADM-RUS.33_1
GADM-RUS.34_1
GADM-RUS.35_1
GADM-RUS.36_1
GADM-RUS.37_1
GADM-RUS.38_1
GADM-RUS.39_1
GADM-RUS.3_1
GADM-RUS.40_1
GADM-RUS.41_1
GADM-RUS.42_1
GADM-RUS.43_1
GADM-RUS.44_1
GADM-RUS.45_1
GADM-RUS.46_1
GADM-RUS.47_1
GADM-RUS.48_1
GADM-RUS.49_1
GADM-RUS.4_1
GADM-RUS.50_1
GADM-RUS.51_1
GADM-RUS.52_1
GADM-RUS.53_1
GADM-RUS.54_1
GADM-RUS.55_1
GADM-RUS.56_1
GADM-RUS.57_1
GADM-RUS.58_1
GADM-RUS.59_1
GADM-RUS.5_1
GADM-RUS.60_1
GADM-RUS.61_1
GADM-RUS.62_1
GADM-RUS.63_1
GADM-RUS.64_1
GADM-RUS.65_1
GADM-RUS.66_1
GADM-RUS.67_1
GADM-RUS.68_1
GADM-RUS.69_1
GADM-RUS.6_1
GADM-RUS.70_1
GADM-RUS.71_1
GADM-RUS.72_1
GADM-RUS.73_1
GADM-RUS.74_1
GADM-RUS.75_1
GADM-RUS.76_1
GADM-RUS.77_1
GADM-RUS.78_1
GADM-RUS.79_1
GADM-RUS.7_1
GADM-RUS.80_1
GADM-RUS.81_1
GADM-RUS.82_1
GADM-RUS.83_1
GADM-RUS.8_1
GADM-RUS.9_1
GADM-RWA.1_1
GADM-RWA.2_1
GADM-RWA.3_1
GADM-RWA.4_1
GADM-RWA.5_1
GADM-SAU.10_1
GADM-SAU.11_1
GADM-SAU.12_1
GADM-SAU.13_1
GADM-SAU.1_1
GADM-SAU.2_1
GADM-SAU.3_1
GADM-SAU.4_1
GADM-SAU.5_1
GADM-SAU.6_1
GADM-SAU.7_1
GADM-SAU.8_1
GADM-SAU.9_1
GADM-SDN.10_1
GADM-SDN.11_1
GADM-SDN.12_1
GADM-SDN.13_1
GADM-SDN.14_1
GADM-SDN.15_1
GADM-SDN.16_1
GADM-SDN.17_1
GADM-SDN.18_1
GADM-SDN.1_1
GADM-SDN.2_1
GADM-SDN.3_1
GADM-SDN.4_1
GADM-SDN.5_1
GADM-SDN.6_1
GADM-SDN.7_1
GADM-SDN.8_1
GADM-SDN.9_1
GADM-SEN.10_1
GADM-SEN.11_1
GADM-SEN.12_1
GADM-SEN.13_1
GADM-SEN.14_1
GADM-SEN.1_1
GADM-SEN.2_1
GADM-SEN.3_1
GADM-SEN.4_1
GADM-SEN.5_1
GADM-SEN.6_1
GADM-SEN.7_1
GADM-SEN.8_1
GADM-SEN.9_1
GADM-SGP.1_1
GADM-SGP.2_1
GADM-SGP.3_1
GADM-SGP.4_1
GADM-SGP.5_1
GADM-SHN.1_1
GADM-SHN.2_1
GADM-SHN.3_1
GADM-SJM.1_1
GADM-SJM.2_1
GADM-SLB.10_1
GADM-SLB.1_1
GADM-SLB.2_1
GADM-SLB.3_1
GADM-SLB.4_1
GADM-SLB.5_1
GADM-SLB.6_1
GADM-SLB.7_1
GADM-SLB.8_1
GADM-SLB.9_1
GADM-SLE.1_1
GADM-SLE.2_1
GADM-SLE.3_1
GADM-SLE.4_1
GADM-SLV.10_1
GADM-SLV.11_1
GADM-SLV.12_1
GADM-SLV.13_1
GADM-SLV.14_1
GADM-SLV.1_1
GADM-SLV.2_1
GADM-SLV.3_1
GADM-SLV.4_1
GADM-SLV.5_1
GADM-SLV.6_1
GADM-SLV.7_1
GADM-SLV.8_1
GADM-SLV.9_1
GADM-SMR.1_1
GADM-SMR.2_1
GADM-SMR.3_1
GADM-SMR.4_1
GADM-SMR.5_1
GADM-SMR.6_1
GADM-SMR.7_1
GADM-SMR.8_1
GADM-SMR.9_1
GADM-SOM.10_1
GADM-SOM.11_1
GADM-SOM.12_1
GADM-SOM.13_1
GADM-SOM.14_1
GADM-SOM.15_1
GADM-SOM.16_1
GADM-SOM.17_1
GADM-SOM.18_1
GADM-SOM.1_1
GADM-SOM.2_1
GADM-SOM.3_1
GADM-SOM.4_1
GADM-SOM.5_1
GADM-SOM.6_1
GADM-SOM.7_1
GADM-SOM.8_1
GADM-SOM.9_1
GADM-SPM.1_1
GADM-SPM.2_1
GADM-SRB.10_1
GADM-SRB.11_1
GADM-SRB.12_1
GADM-SRB.13_1
GADM-SRB.14_1
GADM-SRB.15_1
GADM-SRB.16_1
GADM-SRB.17_1
GADM-SRB.18_1
GADM-SRB.19_1
GADM-SRB.1_1
GADM-SRB.20_1
GADM-SRB.21_1
GADM-SRB.22_1
GADM-SRB.23_1
GADM-SRB.24_1
GADM-SRB.25_1
GADM-SRB.2_1
GADM-SRB.3_1
GADM-SRB.4_1
GADM-SRB.5_1
GADM-SRB.6_1
GADM-SRB.7_1
GADM-SRB.8_1
GADM-SRB.9_1
GADM-SSD.10_1
GADM-SSD.1_1
GADM-SSD.2_1
GADM-SSD.3_1
GADM-SSD.4_1
GADM-SSD.5_1
GADM-SSD.6_1
GADM-SSD.7_1
GADM-SSD.8_1
GADM-SSD.9_1
GADM-STP.1_1
GADM-STP.2_1
GADM-SUR.10_1
GADM-SUR.1_1
GADM-SUR.2_1
GADM-SUR.3_1
GADM-SUR.4_1
GADM-SUR.5_1
GADM-SUR.6_1
GADM-SUR.7_1
GADM-SUR.8_1
GADM-SUR.9_1
GADM-SVK.1_1
GADM-SVK.2_1
GADM-SVK.3_1
GADM-SVK.4_1
GADM-SVK.5_1
GADM-SVK.6_1
GADM-SVK.7_1
GADM-SVK.8_1
GADM-SVN.10_1
GADM-SVN.11_1
GADM-SVN.12_1
GADM-SVN.1_1
GADM-SVN.2_1
GADM-SVN.3_1
GADM-SVN.4_1
GADM-SVN.5_1
GADM-SVN.6_1
GADM-SVN.7_1
GADM-SVN.8_1
GADM-SVN.9_1
GADM-SWE.10_1
GADM-SWE.11_1
GADM-SWE.12_1
GADM-SWE.13_1
GADM-SWE.14_1
GADM-SWE.15_1
GADM-SWE.16_1
GADM-SWE.17_1
GADM-SWE.18_1
GADM-SWE.19_1
GADM-SWE.1_1
GADM-SWE.20_1
GADM-SWE.21_1
GADM-SWE.2_1
GADM-SWE.3_1
GADM-SWE.4_1
GADM-SWE.5_1
GADM-SWE.6_1
GADM-SWE.7_1
GADM-SWE.8_1
GADM-SWE.9_1
GADM-SWZ.1_1
GADM-SWZ.2_1
GADM-SWZ.3_1
GADM-SWZ.4_1
GADM-SYC.10_1
GADM-SYC.11_1
GADM-SYC.12_1
GADM-SYC.13_1
GADM-SYC.14_1
GADM-SYC.15_1
GADM-SYC.16_1
GADM-SYC.17_1
GADM-SYC.18_1
GADM-SYC.19_1
GADM-SYC.1_1
GADM-SYC.20_1
GADM-SYC.21_1
GADM-SYC.22_1
GADM-SYC.23_1
GADM-SYC.24_1
GADM-SYC.25_1
GADM-SYC.26_1
GADM-SYC.2_1
GADM-SYC.3_1
GADM-SYC.4_1
GADM-SYC.5_1
GADM-SYC.6_1
GADM-SYC.7_1
GADM-SYC.8_1
GADM-SYC.9_1
GADM-SYR.10_1
GADM-SYR.11_1
GADM-SYR.12_1
GADM-SYR.13_1
GADM-SYR.14_1
GADM-SYR.1_1
GADM-SYR.2_1
GADM-SYR.3_1
GADM-SYR.4_1
GADM-SYR.5_1
GADM-SYR.6_1
GADM-SYR.7_1
GADM-SYR.8_1
GADM-SYR.9_1
GADM-TCA.1_1
GADM-TCA.2_1
GADM-TCA.3_1
GADM-TCA.4_1
GADM-TCA.5_1
GADM-TCA.6_1
GADM-TCD.10_1
GADM-TCD.11_1
GADM-TCD.12_1
GADM-TCD.13_1
GADM-TCD.14_1
GADM-TCD.15_1
GADM-TCD.16_1
GADM-TCD.17_1
GADM-TCD.18_1
GADM-TCD.19_1
GADM-TCD.1_1
GADM-TCD.20_1
GADM-TCD.21_1
GADM-TCD.22_1
GADM-TCD.23_1
GADM-TCD.2_1
GADM-TCD.3_1
GADM-TCD.4_1
GADM-TCD.5_1
GADM-TCD.6_1
GADM-TCD.7_1
GADM-TCD.8_1
GADM-TCD.9_1
GADM-TGO.1_1
GADM-TGO.2_1
GADM-TGO.3_1
GADM-TGO.4_1
GADM-TGO.5_1
GADM-THA.10_1
GADM-THA.11_1
GADM-THA.12_1
GADM-THA.13_1
GADM-THA.14_1
GADM-THA.15_1
GADM-THA.16_1
GADM-THA.17_1
GADM-THA.18_1
GADM-THA.19_1
GADM-THA.1_1
GADM-THA.20_1
GADM-THA.21_1
GADM-THA.22_1
GADM-THA.23_1
GADM-THA.24_1
GADM-THA.25_1
GADM-THA.26_1
GADM-THA.27_1
GADM-THA.28_1
GADM-THA.29_1
GADM-THA.2_1
GADM-THA.30_1
GADM-THA.31_1
GADM-THA.32_1
GADM-THA.33_1
GADM-THA.34_1
GADM-THA.35_1
GADM-THA.36_1
GADM-THA.37_1
GADM-THA.38_1
GADM-THA.39_1
GADM-THA.3_1
GADM-THA.40_1
GADM-THA.41_1
GADM-THA.42_1
GADM-THA.43_1
GADM-THA.44_1
GADM-THA.45_1
GADM-THA.46_1
GADM-THA.47_1
GADM-THA.48_1
GADM-THA.49_1
GADM-THA.4_1
GADM-THA.50_1
GADM-THA.51_1
GADM-THA.52_1
GADM-THA.53_1
GADM-THA.54_1
GADM-THA.55_1
GADM-THA.56_1
GADM-THA.57_1
GADM-THA.58_1
GADM-THA.59_1
GADM-THA.5_1
GADM-THA.60_1
GADM-THA.61_1
GADM-THA.62_1
GADM-THA.63_1
GADM-THA.64_1
GADM-THA.65_1
GADM-THA.66_1
GADM-THA.67_1
GADM-THA.68_1
GADM-THA.69_1
GADM-THA.6_1
GADM-THA.70_1
GADM-THA.71_1
GADM-THA.72_1
GADM-THA.73_1
GADM-THA.74_1
GADM-THA.75_1
GADM-THA.76_1
GADM-THA.77_1
GADM-THA.7_1
GADM-THA.8_1
GADM-THA.9_1
GADM-TJK.1_1
GADM-TJK.2_1
GADM-TJK.3_1
GADM-TJK.4_1
GADM-TJK.5_1
GADM-TKL.1_1
GADM-TKL.2_1
GADM-TKL.3_1
GADM-TKM.1_1
GADM-TKM.2_1
GADM-TKM.3_1
GADM-TKM.4_1
GADM-TKM.5_1
GADM-TKM.6_1
GADM-TLS.10_1
GADM-TLS.11_1
GADM-TLS.12_1
GADM-TLS.13_1
GADM-TLS.1_1
GADM-TLS.2_1
GADM-TLS.3_1
GADM-TLS.4_1
GADM-TLS.5_1
GADM-TLS.6_1
GADM-TLS.7_1
GADM-TLS.8_1
GADM-TLS.9_1
GADM-TON.1_1
GADM-TON.2_1
GADM-TON.3_1
GADM-TON.4_1
GADM-TON.5_1
GADM-TTO.10_1
GADM-TTO.11_1
GADM-TTO.12_1
GADM-TTO.13_1
GADM-TTO.14_1
GADM-TTO.15_1
GADM-TTO.1_1
GADM-TTO.2_1
GADM-TTO.3_1
GADM-TTO.4_1
GADM-TTO.5_1
GADM-TTO.6_1
GADM-TTO.7_1
GADM-TTO.8_1
GADM-TTO.9_1
GADM-TUN.10_1
GADM-TUN.11_1
GADM-TUN.12_1
GADM-TUN.13_1
GADM-TUN.14_1
GADM-TUN.15_1
GADM-TUN.16_1
GADM-TUN.17_1
GADM-TUN.18_1
GADM-TUN.19_1
GADM-TUN.1_1
GADM-TUN.20_1
GADM-TUN.21_1
GADM-TUN.22_1
GADM-TUN.23_1
GADM-TUN.24_1
GADM-TUN.2_1
GADM-TUN.3_1
GADM-TUN.4_1
GADM-TUN.5_1
GADM-TUN.6_1
GADM-TUN.7_1
GADM-TUN.8_1
GADM-TUN.9_1
GADM-TUR.10_1
GADM-TUR.11_1
GADM-TUR.12_1
GADM-TUR.13_1
GADM-TUR.14_1
GADM-TUR.15_1
GADM-TUR.16_1
GADM-TUR.17_1
GADM-TUR.18_1
GADM-TUR.19_1
GADM-TUR.1_1
GADM-TUR.20_1
GADM-TUR.21_1
GADM-TUR.22_1
GADM-TUR.23_1
GADM-TUR.24_1
GADM-TUR.25_1
GADM-TUR.26_1
GADM-TUR.27_1
GADM-TUR.28_1
GADM-TUR.29_1
GADM-TUR.2_1
GADM-TUR.30_1
GADM-TUR.31_1
GADM-TUR.32_1
GADM-TUR.33_1
GADM-TUR.34_1
GADM-TUR.35_1
GADM-TUR.36_1
GADM-TUR.37_1
GADM-TUR.38_1
GADM-TUR.39_1
GADM-TUR.3_1
GADM-TUR.40_1
GADM-TUR.41_1
GADM-TUR.42_1
GADM-TUR.43_1
GADM-TUR.44_1
GADM-TUR.45_1
GADM-TUR.46_1
GADM-TUR.47_1
GADM-TUR.48_1
GADM-TUR.49_1
GADM-TUR.4_1
GADM-TUR.50_1
GADM-TUR.51_1
GADM-TUR.52_1
GADM-TUR.53_1
GADM-TUR.54_1
GADM-TUR.55_1
GADM-TUR.56_1
GADM-TUR.57_1
GADM-TUR.58_1
GADM-TUR.59_1
GADM-TUR.5_1
GADM-TUR.60_1
GADM-TUR.61_1
GADM-TUR.62_1
GADM-TUR.63_1
GADM-TUR.64_1
GADM-TUR.65_1
GADM-TUR.66_1
GADM-TUR.67_1
GADM-TUR.68_1
GADM-TUR.69_1
GADM-TUR.6_1
GADM-TUR.70_1
GADM-TUR.71_1
GADM-TUR.72_1
GADM-TUR.73_1
GADM-TUR.74_1
GADM-TUR.75_1
GADM-TUR.76_1
GADM-TUR.77_1
GADM-TUR.78_1
GADM-TUR.79_1
GADM-TUR.7_1
GADM-TUR.80_1
GADM-TUR.81_1
GADM-TUR.8_1
GADM-TUR.9_1
GADM-TUV.1_1
GADM-TUV.2_1
GADM-TUV.3_1
GADM-TUV.4_1
GADM-TUV.5_1
GADM-TUV.6_1
GADM-TUV.7_1
GADM-TUV.8_1
GADM-TUV.9_1
GADM-TWN.1_1
GADM-TWN.2_1
GADM-TWN.3_1
GADM-TWN.4_1
GADM-TWN.5_1
GADM-TWN.6_1
GADM-TWN.7_1
GADM-TZA.10_1
GADM-TZA.11_1
GADM-TZA.12_1
GADM-TZA.13_1
GADM-TZA.14_1
GADM-TZA.15_1
GADM-TZA.16_1
GADM-TZA.17_1
GADM-TZA.18_1
GADM-TZA.19_1
GADM-TZA.1_1
GADM-TZA.20_1
GADM-TZA.21_1
GADM-TZA.22_1
GADM-TZA.23_1
GADM-TZA.24_1
GADM-TZA.25_1
GADM-TZA.26_1
GADM-TZA.27_1
GADM-TZA.28_1
GADM-TZA.29_1
GADM-TZA.2_1
GADM-TZA.30_1
GADM-TZA.3_1
GADM-TZA.4_1
GADM-TZA.5_1
GADM-TZA.6_1
GADM-TZA.7_1
GADM-TZA.8_1
GADM-TZA.9_1
GADM-UGA.10_1
GADM-UGA.11_1
GADM-UGA.12_1
GADM-UGA.13_1
GADM-UGA.14_1
GADM-UGA.15_1
GADM-UGA.16_1
GADM-UGA.17_1
GADM-UGA.18_1
GADM-UGA.19_1
GADM-UGA.1_1
GADM-UGA.20_1
GADM-UGA.21_1
GADM-UGA.22_1
GADM-UGA.23_1
GADM-UGA.24_1
GADM-UGA.25_1
GADM-UGA.26_1
GADM-UGA.27_1
GADM-UGA.28_1
GADM-UGA.29_1
GADM-UGA.2_1
GADM-UGA.30_1
GADM-UGA.31_1
GADM-UGA.32_1
GADM-UGA.33_1
GADM-UGA.34_1
GADM-UGA.35_1
GADM-UGA.36_1
GADM-UGA.37_1
GADM-UGA.38_1
GADM-UGA.39_1
GADM-UGA.3_1
GADM-UGA.40_1
GADM-UGA.41_1
GADM-UGA.42_1
GADM-UGA.43_1
GADM-UGA.44_1
GADM-UGA.45_1
GADM-UGA.46_1
GADM-UGA.47_1
GADM-UGA.48_1
GADM-UGA.49_1
GADM-UGA.4_1
GADM-UGA.50_1
GADM-UGA.51_1
GADM-UGA.52_1
GADM-UGA.53_1
GADM-UGA.54_1
GADM-UGA.55_1
GADM-UGA.56_1
GADM-UGA.57_1
GADM-UGA.58_1
GADM-UGA.5_1
GADM-UGA.6_1
GADM-UGA.7_1
GADM-UGA.8_1
GADM-UGA.9_1
GADM-UKR.10_1
GADM-UKR.11_1
GADM-UKR.12_1
GADM-UKR.13_1
GADM-UKR.14_1
GADM-UKR.15_1
GADM-UKR.16_1
GADM-UKR.17_1
GADM-UKR.18_1
GADM-UKR.19_1
GADM-UKR.1_1
GADM-UKR.20_1
GADM-UKR.21_1
GADM-UKR.22_1
GADM-UKR.23_1
GADM-UKR.24_1
GADM-UKR.25_1
GADM-UKR.26_1
GADM-UKR.27_1
GADM-UKR.2_1
GADM-UKR.3_1
GADM-UKR.4_1
GADM-UKR.5_1
GADM-UKR.6_1
GADM-UKR.7_1
GADM-UKR.8_1
GADM-UKR.9_1
GADM-UMI.1_1
GADM-UMI.2_1
GADM-UMI.3_1
GADM-UMI.4_1
GADM-UMI.5_1
GADM-UMI.6_1
GADM-UMI.7_1
GADM-UMI.8_1
GADM-UMI.9_1
GADM-URY.10_1
GADM-URY.11_1
GADM-URY.12_1
GADM-URY.13_1
GADM-URY.14_1
GADM-URY.15_1
GADM-URY.16_1
GADM-URY.17_1
GADM-URY.18_1
GADM-URY.19_1
GADM-URY.1_1
GADM-URY.2_1
GADM-URY.3_1
GADM-URY.4_1
GADM-URY.5_1
GADM-URY.6_1
GADM-URY.7_1
GADM-URY.8_1
GADM-URY.9_1
GADM-USA.10_1
GADM-USA.11_1
GADM-USA.12_1
GADM-USA.13_1
GADM-USA.14_1
GADM-USA.15_1
GADM-USA.16_1
GADM-USA.17_1
GADM-USA.18_1
GADM-USA.19_1
GADM-USA.1_1
GADM-USA.20_1
GADM-USA.21_1
GADM-USA.22_1
GADM-USA.23_1
GADM-USA.24_1
GADM-USA.25_1
GADM-USA.26_1
GADM-USA.27_1
GADM-USA.28_1
GADM-USA.29_1
GADM-USA.2_1
GADM-USA.30_1
GADM-USA.31_1
GADM-USA.32_1
GADM-USA.33_1
GADM-USA.34_1
GADM-USA.35_1
GADM-USA.36_1
GADM-USA.37_1
GADM-USA.38_1
GADM-USA.39_1
GADM-USA.3_1
GADM-USA.40_1
GADM-USA.41_1
GADM-USA.42_1
GADM-USA.43_1
GADM-USA.44_1
GADM-USA.45_1
GADM-USA.46_1
GADM-USA.47_1
GADM-USA.48_1
GADM-USA.49_1
GADM-USA.4_1
GADM-USA.50_1
GADM-USA.51_1
GADM-USA.5_1
GADM-USA.6_1
GADM-USA.7_1
GADM-USA.8_1
GADM-USA.9_1
GADM-UZB.10_1
GADM-UZB.11_1
GADM-UZB.12_1
GADM-UZB.13_1
GADM-UZB.14_1
GADM-UZB.1_1
GADM-UZB.2_1
GADM-UZB.3_1
GADM-UZB.4_1
GADM-UZB.5_1
GADM-UZB.6_1
GADM-UZB.7_1
GADM-UZB.8_1
GADM-UZB.9_1
GADM-VCT.1_1
GADM-VCT.2_1
GADM-VCT.3_1
GADM-VCT.4_1
GADM-VCT.5_1
GADM-VCT.6_1
GADM-VEN.10_1
GADM-VEN.11_1
GADM-VEN.12_1
GADM-VEN.13_1
GADM-VEN.14_1
GADM-VEN.15_1
GADM-VEN.16_1
GADM-VEN.17_1
GADM-VEN.18_1
GADM-VEN.19_1
GADM-VEN.1_1
GADM-VEN.20_1
GADM-VEN.21_1
GADM-VEN.22_1
GADM-VEN.23_1
GADM-VEN.24_1
GADM-VEN.25_1
GADM-VEN.2_1
GADM-VEN.3_1
GADM-VEN.4_1
GADM-VEN.5_1
GADM-VEN.6_1
GADM-VEN.7_1
GADM-VEN.8_1
GADM-VEN.9_1
GADM-VGB.1_1
GADM-VGB.2_1
GADM-VGB.3_1
GADM-VGB.4_1
GADM-VGB.5_1
GADM-VIR.1_1
GADM-VIR.2_1
GADM-VIR.3_1
GADM-VNM.10_1
GADM-VNM.11_1
GADM-VNM.12_1
GADM-VNM.13_1
GADM-VNM.14_1
GADM-VNM.15_1
GADM-VNM.16_1
GADM-VNM.17_1
GADM-VNM.18_1
GADM-VNM.19_1
GADM-VNM.1_1
GADM-VNM.20_1
GADM-VNM.21_1
GADM-VNM.22_1
GADM-VNM.23_1
GADM-VNM.24_1
GADM-VNM.25_1
GADM-VNM.26_1
GADM-VNM.27_1
GADM-VNM.28_1
GADM-VNM.29_1
GADM-VNM.2_1
GADM-VNM.30_1
GADM-VNM.31_1
GADM-VNM.32_1
GADM-VNM.33_1
GADM-VNM.34_1
GADM-VNM.35_1
GADM-VNM.36_1
GADM-VNM.37_1
GADM-VNM.38_1
GADM-VNM.39_1
GADM-VNM.3_1
GADM-VNM.40_1
GADM-VNM.41_1
GADM-VNM.42_1
GADM-VNM.43_1
GADM-VNM.44_1
GADM-VNM.45_1
GADM-VNM.46_1
GADM-VNM.47_1
GADM-VNM.48_1
GADM-VNM.49_1
GADM-VNM.4_1
GADM-VNM.50_1
GADM-VNM.51_1
GADM-VNM.52_1
GADM-VNM.53_1
GADM-VNM.54_1
GADM-VNM.55_1
GADM-VNM.56_1
GADM-VNM.57_1
GADM-VNM.58_1
GADM-VNM.59_1
GADM-VNM.5_1
GADM-VNM.60_1
GADM-VNM.61_1
GADM-VNM.62_1
GADM-VNM.63_1
GADM-VNM.6_1
GADM-VNM.7_1
GADM-VNM.8_1
GADM-VNM.9_1
GADM-VUT.1_1
GADM-VUT.2_1
GADM-VUT.3_1
GADM-VUT.4_1
GADM-VUT.5_1
GADM-VUT.6_1
GADM-WLF.1_1
GADM-WLF.2_1
GADM-WLF.3_1
GADM-WSM.10_1
GADM-WSM.11_1
GADM-WSM.1_1
GADM-WSM.2_1
GADM-WSM.3_1
GADM-WSM.4_1
GADM-WSM.5_1
GADM-WSM.6_1
GADM-WSM.7_1
GADM-WSM.8_1
GADM-WSM.9_1
GADM-XAD.1_1
GADM-XAD.2_1
GADM-XKO.1_1
GADM-XKO.2_1
GADM-XKO.3_1
GADM-XKO.4_1
GADM-XKO.5_1
GADM-XKO.6_1
GADM-XKO.7_1
GADM-XNC.1_1
GADM-XNC.2_1
GADM-XNC.3_1
GADM-XNC.4_1
GADM-XNC.5_1
GADM-YEM.10_1
GADM-YEM.11_1
GADM-YEM.12_1
GADM-YEM.13_1
GADM-YEM.14_1
GADM-YEM.15_1
GADM-YEM.16_1
GADM-YEM.17_1
GADM-YEM.18_1
GADM-YEM.19_1
GADM-YEM.1_1
GADM-YEM.20_1
GADM-YEM.21_1
GADM-YEM.2_1
GADM-YEM.3_1
GADM-YEM.4_1
GADM-YEM.5_1
GADM-YEM.6_1
GADM-YEM.7_1
GADM-YEM.8_1
GADM-YEM.9_1
GADM-ZAF.1_1
GADM-ZAF.2_1
GADM-ZAF.3_1
GADM-ZAF.4_1
GADM-ZAF.5_1
GADM-ZAF.6_1
GADM-ZAF.7_1
GADM-ZAF.8_1
GADM-ZAF.9_1
GADM-ZMB.10_1
GADM-ZMB.1_1
GADM-ZMB.2_1
GADM-ZMB.3_1
GADM-ZMB.4_1
GADM-ZMB.5_1
GADM-ZMB.6_1
GADM-ZMB.7_1
GADM-ZMB.8_1
GADM-ZMB.9_1
GADM-ZWE.10_1
GADM-ZWE.1_1
GADM-ZWE.2_1
GADM-ZWE.3_1
GADM-ZWE.4_1
GADM-ZWE.5_1
GADM-ZWE.6_1
GADM-ZWE.7_1
GADM-ZWE.8_1
GADM-ZWE.9_1